"","scenario","natal.basin","spawners","natal.smolts","non.natal.smolts","Pn","Cn"
"1","Current","Upper Chehalis: Above Proposed Dam",852,19413,3439,2.0668922540464,1650.58110954374
"2","Current","Upper Chehalis: Proposed Dam to Elk Creek",642,15443,2322,2.57674870897917,1049.16697362362
"3","Current","Elk Creek",1393,32615,4469,2.80303014064625,2165.58830487477
"4","Current","Unnamed: Willapa Hills 3",61,1504,138,1.52198812383818,177.860896281447
"5","Current","South Fork Chehalis",4428,107067,11751,2.91508836909873,6740.16484390424
"6","Current","Unnamed: Willapa Hills 2",234,6618,738,2.81097581945526,363.212106250202
"7","Current","Unnamed: Willapa Hills 1",0,0,0,0,NA
"8","Current","Unnamed: Willapa Hills 4",19,768,70,1.55486139732704,53.2427858408056
"9","Current","Stearns Creek",473,12033,1245,2.86295661985681,726.897484760733
"10","Current","Bunker Creek",304,7837,822,1.79109267764497,688.278616893518
"11","Current","Unnamed: Central Lowlands 9",6,170,16,1.0316853089387,195.362206049725
"12","Current","Newaukum River",4823,115508,14812,2.74158123444855,7592.32244365113
"13","Current","Dillenbaugh Creek",37,1435,105,1.31040450858736,156.199299547502
"14","Current","Unnamed: Central Lowlands 8",0,0,0,0.847713489552424,NA
"15","Current","Salzer Creek",8,222,20,1.03279139614591,251.966434500134
"16","Current","Unnamed: Cascade Mountains 1",0,0,0,0.176841978041259,NA
"17","Current","Unnamed: Central Lowlands 7",0,0,0,0.201481119566266,NA
"18","Current","Skookumchuck River",5511,140989,13863,2.52742048973244,9119.0437816867
"19","Current","Lincoln Creek",1007,24235,3288,2.37134304723968,1741.31662633719
"20","Current","Unnamed: Central Lowlands 6",1179,29540,3251,4.82205784014618,1487.47256878638
"21","Current","Unnamed: Black River 1",253,7226,718,2.2593636088328,453.895117363669
"22","Current","Scatter Creek",893,22280,2426,3.06916433376504,1324.57519459805
"23","Current","Black River",4863,128026,12001,3.29878214851493,6978.46796774179
"24","Current","Unnamed: Central Lowlands 5",0,34,3,0.733081432470421,NA
"25","Current","Garrard Creek",448,11082,1303,2.20554651991128,819.615688487053
"26","Current","Unnamed: Black Hills 5",133,3264,383,2.66004489393248,213.118315164921
"27","Current","Unnamed: Central Lowlands 4",81,2007,152,3.03294164177707,120.843740880429
"28","Current","Rock Creek (Lower Chehalis)",694,16556,1901,3.16648297187153,1014.33485100531
"29","Current","Cedar Creek",1042,24111,3529,4.10526975398251,1377.55860925243
"30","Current","Unnamed: Black Hills 4",41,952,126,2.31397313594682,72.2030732427846
"31","Current","Unnamed: Central Lowlands 3",0,8,1,0.827389626653162,NA
"32","Current","Porter Creek",507,11455,2009,3.08870883133493,749.733689058981
"33","Current","Unnamed: Black Hills 3",0,0,0,0,NA
"34","Current","Mox Chehalis Creek",2202,53952,5686,4.90819655192467,2765.4312324736
"35","Current","Unnamed: Black Hills 2",0,0,0,0,NA
"36","Current","Unnamed: Central Lowlands 2",245,6228,737,1.58154258867398,666.293306408812
"37","Current","Cloquallum Creek",4060,101982,10367,3.46938520499443,5704.13392928267
"38","Current","Unnamed: Black Hills 1",1045,28799,2191,2.71268323357193,1655.15369305658
"39","Current","Unnamed: Central Lowlands 1",101,3291,320,2.45657159695265,170.340909991178
"40","Current","Satsop River",22997,571059,52967,4.48021289148289,29604.9290885568
"41","Current","Unnamed: Olympic Mountains 1",0,0,0,0.576606478127579,NA
"42","Current","Wynoochee River",6691,185773,0,4.35836658011904,8683.33759638081
"43","Current","Wishkah River",2293,62382,0,1.9042832130778,4828.71001522366
"44","Current","Hoquiam River",4274,118118,0,4.07749768361975,5662.79064726799
"45","Current","Humptulips River",14555,390609,0,4.71380438207055,18474.1617281374
"46","Current","Johns River",556,14872,0,2.17934147959297,1027.44954164751
"47","Current","Elk River",519,14248,0,2.75604319325845,814.550816740996
"48","Current","Andrews",86,2287,0,2.1282101525168,162.226933260751
"49","Current","Upper Chehalis Estuary",38,1129,0,1.23038781429505,202.939279085891
"50","Current","Lower Chehalis Estuary",0,0,0,0,NA
"51","Current","Upper Skookumchuck",0,0,0,0,NA
"52","Current","Mainstem: Upper Chehalis 1",0,0,0,0.560617557297276,NA
"53","Current","Mainstem: Upper Chehalis 2",0,0,0,0.861311125086012,NA
"54","Current","Mainstem: Middle Chehalis 1",0,0,0,0.575047582572807,NA
"55","Current","Mainstem: Middle Chehalis 2",0,0,0,0.24180159751561,NA
"56","Current","Mainstem: Middle Chehalis 3",0,0,0,0,NA
"57","Current","Mainstem: Lower Chehalis 1",0,0,0,0.182128640119599,NA
"58","Current","Mainstem: Lower Chehalis 2",17,460,0,1.08866819599856,208.726016397986
"59","Current","Mainstem: Lower Chehalis 3",0,0,0,0.923899576038691,NA
"60","Current","Mainstem: Lower Chehalis 4",0,0,0,0.815062967211119,NA
"61","Current","Mainstem: Lower Chehalis 5",136,3679,0,1.69951614002425,330.42010300904
"62","Current","Mainstem: Lower Chehalis 6",0,0,0,0.795974118910246,NA
"63","Current","Mainstem: Lower Chehalis 7",0,0,0,1.12529219683904,0
"64","Barriers","Upper Chehalis: Above Proposed Dam",970,22108,3921,2.10414748668816,1848.50582616411
"65","Barriers","Upper Chehalis: Proposed Dam to Elk Creek",666,15681,2358,2.62049510553072,1076.98550543408
"66","Barriers","Elk Creek",1392,32603,4442,2.80301782253147,2164.0389574661
"67","Barriers","Unnamed: Willapa Hills 3",61,1500,137,1.52016184360796,178.271193090386
"68","Barriers","South Fork Chehalis",4489,108048,11782,2.91079357875882,6838.28568417939
"69","Barriers","Unnamed: Willapa Hills 2",334,7979,937,3.05265439544638,496.716140009223
"70","Barriers","Unnamed: Willapa Hills 1",0,0,0,0,NA
"71","Barriers","Unnamed: Willapa Hills 4",70,1700,178,2.77552619538927,109.424932271784
"72","Barriers","Stearns Creek",518,12771,1333,2.91902905476809,787.928169515181
"73","Barriers","Bunker Creek",345,8303,874,1.84665356087356,752.48662256146
"74","Barriers","Unnamed: Central Lowlands 9",51,1275,139,1.69108437693886,124.797066902168
"75","Barriers","Newaukum River",4999,119029,15079,2.72871110430334,7890.74980571122
"76","Barriers","Dillenbaugh Creek",280,7198,564,2.52332983497466,463.807861942556
"77","Barriers","Unnamed: Central Lowlands 8",0,0,0,0.847707462384753,NA
"78","Barriers","Salzer Creek",35,862,81,1.23995208054739,180.862456871204
"79","Barriers","Unnamed: Cascade Mountains 1",105,2754,215,1.96260032089914,214.079539784406
"80","Barriers","Unnamed: Central Lowlands 7",15,376,35,1.15112288658998,114.256971187276
"81","Barriers","Skookumchuck River",6048,147939,14350,2.55816255603788,9929.49489060945
"82","Barriers","Lincoln Creek",1059,24816,3370,2.40904528761134,1810.57272041643
"83","Barriers","Unnamed: Central Lowlands 6",1288,30912,3419,4.81117758393158,1625.95328914359
"84","Barriers","Unnamed: Black River 1",296,7565,754,2.27618823525199,527.940705785893
"85","Barriers","Scatter Creek",908,22379,2421,3.08222931780737,1344.07108603972
"86","Barriers","Black River",5188,130885,12158,3.17833733094804,7569.63296670957
"87","Barriers","Unnamed: Central Lowlands 5",39,943,100,2.26871852648263,69.7396788065537
"88","Barriers","Garrard Creek",496,11807,1399,2.29511987245899,878.976132594017
"89","Barriers","Unnamed: Black Hills 5",136,3308,386,2.70502118339145,215.764404879406
"90","Barriers","Unnamed: Central Lowlands 4",423,10338,867,2.8851342721674,647.387199493044
"91","Barriers","Rock Creek (Lower Chehalis)",693,16549,1884,3.16644991792163,1012.87815377926
"92","Barriers","Cedar Creek",1040,24095,3494,4.10040609178776,1375.43992922563
"93","Barriers","Unnamed: Black Hills 4",41,951,124,2.31394373181325,72.2037715217987
"94","Barriers","Unnamed: Central Lowlands 3",27,656,65,1.64322158202118,68.9762034649993
"95","Barriers","Porter Creek",508,11531,1982,3.095353167644,750.441230358886
"96","Barriers","Unnamed: Black Hills 3",7,178,20,1.43185871657348,23.2090047771653
"97","Barriers","Mox Chehalis Creek",2420,59662,6149,4.9805829428397,3027.95115558466
"98","Barriers","Unnamed: Black Hills 2",0,0,0,0,NA
"99","Barriers","Unnamed: Central Lowlands 2",286,6801,810,1.65196892743618,724.671212636886
"100","Barriers","Cloquallum Creek",4283,104610,10579,3.53321245463488,5973.73856879379
"101","Barriers","Unnamed: Black Hills 1",1230,32822,2513,2.84596658238781,1896.31758761795
"102","Barriers","Unnamed: Central Lowlands 1",177,4225,475,3.48448256969292,248.24219833906
"103","Barriers","Satsop River",23777,582270,53396,4.53984687952422,30493.9572044302
"104","Barriers","Unnamed: Olympic Mountains 1",27,659,61,1.1555375675301,200.591502225177
"105","Barriers","Wynoochee River",7151,191052,0,4.74080067872993,9062.62283536259
"106","Barriers","Wishkah River",2649,70503,0,2.10740839002936,5041.07145606849
"107","Barriers","Hoquiam River",4636,123347,0,4.20865995209656,6080.8399235858
"108","Barriers","Humptulips River",14631,391096,0,4.72083914883464,18563.1775047928
"109","Barriers","Johns River",589,15787,0,2.18217983606441,1087.23214880812
"110","Barriers","Elk River",549,14614,0,2.83903262232448,847.526515155605
"111","Barriers","Andrews",86,2287,0,2.1282101525168,162.226933260751
"112","Barriers","Upper Chehalis Estuary",81,2185,0,1.58033828024831,220.573767157567
"113","Barriers","Lower Chehalis Estuary",0,0,0,0,NA
"114","Barriers","Upper Skookumchuck",0,0,0,0,NA
"115","Barriers","Mainstem: Upper Chehalis 1",0,0,0,0.560618149941401,NA
"116","Barriers","Mainstem: Upper Chehalis 2",0,0,0,0.861309187897106,NA
"117","Barriers","Mainstem: Middle Chehalis 1",0,0,0,0.575087586183473,NA
"118","Barriers","Mainstem: Middle Chehalis 2",0,0,0,0.241757648152547,NA
"119","Barriers","Mainstem: Middle Chehalis 3",0,0,0,0,NA
"120","Barriers","Mainstem: Lower Chehalis 1",0,0,0,0.182098114944183,NA
"121","Barriers","Mainstem: Lower Chehalis 2",16,413,0,1.08865915841989,196.466409620359
"122","Barriers","Mainstem: Lower Chehalis 3",0,0,0,0.92388666365546,NA
"123","Barriers","Mainstem: Lower Chehalis 4",0,0,0,0.815062553696743,NA
"124","Barriers","Mainstem: Lower Chehalis 5",132,3589,0,1.6994482175923,320.72018925773
"125","Barriers","Mainstem: Lower Chehalis 6",0,0,0,0.795681744885883,NA
"126","Barriers","Mainstem: Lower Chehalis 7",0,0,0,1.1251086847884,0
"127","Fine.sediment","Upper Chehalis: Above Proposed Dam",1393,30450,6931,4.77193580985419,1762.30639072934
"128","Fine.sediment","Upper Chehalis: Proposed Dam to Elk Creek",920,21701,3768,5.04485257546346,1147.44957519115
"129","Fine.sediment","Elk Creek",2000,45929,7295,5.55348788272626,2439.22374485436
"130","Fine.sediment","Unnamed: Willapa Hills 3",118,2899,282,2.4212721414442,201.024212294836
"131","Fine.sediment","South Fork Chehalis",5876,141048,16621,5.71932746333546,7121.09266323449
"132","Fine.sediment","Unnamed: Willapa Hills 2",335,9384,1155,4.61225559184053,427.739838442415
"133","Fine.sediment","Unnamed: Willapa Hills 1",0,0,0,0,NA
"134","Fine.sediment","Unnamed: Willapa Hills 4",22,869,72,1.68018235579957,54.3442674047883
"135","Fine.sediment","Stearns Creek",551,14080,1377,3.61684576464724,761.558836689512
"136","Fine.sediment","Bunker Creek",556,14220,1623,3.47406973941119,780.73093265848
"137","Fine.sediment","Unnamed: Central Lowlands 9",14,431,39,1.28957038175717,62.3474860759068
"138","Fine.sediment","Newaukum River",6113,145607,19566,4.52944653635926,7844.99960306121
"139","Fine.sediment","Dillenbaugh Creek",70,2701,187,1.72491546982683,166.562982738831
"140","Fine.sediment","Unnamed: Central Lowlands 8",6,154,14,1.04283824479931,146.061760889328
"141","Fine.sediment","Salzer Creek",53,1523,139,1.53725662592125,151.649318487454
"142","Fine.sediment","Unnamed: Cascade Mountains 1",0,0,0,0.191055456397347,NA
"143","Fine.sediment","Unnamed: Central Lowlands 7",0,0,0,0.256782123803342,NA
"144","Fine.sediment","Skookumchuck River",6995,179001,17537,3.67872602440815,9606.31595253214
"145","Fine.sediment","Lincoln Creek",1373,32993,4511,3.72177123233002,1877.45091919963
"146","Fine.sediment","Unnamed: Central Lowlands 6",1403,35097,3930,7.30143522295974,1625.64769062262
"147","Fine.sediment","Unnamed: Black River 1",308,8864,813,2.76329868993405,482.672618858192
"148","Fine.sediment","Scatter Creek",988,24747,2574,3.76137706865716,1345.79249824815
"149","Fine.sediment","Black River",6175,162781,15016,4.77373190487475,7811.31125783562
"150","Fine.sediment","Unnamed: Central Lowlands 5",6,470,40,1.11287611524968,59.1556209808242
"151","Fine.sediment","Garrard Creek",683,16697,2158,3.744968179654,931.81891348048
"152","Fine.sediment","Unnamed: Black Hills 5",164,4029,479,3.64413062986642,226.024167092034
"153","Fine.sediment","Unnamed: Central Lowlands 4",106,2622,185,3.75915741886905,144.417525319541
"154","Fine.sediment","Rock Creek (Lower Chehalis)",832,19915,2227,4.51179340177131,1068.91598702257
"155","Fine.sediment","Cedar Creek",1235,28477,4286,6.84917951157809,1446.14072453331
"156","Fine.sediment","Unnamed: Black Hills 4",51,1198,158,3.23003170319178,73.8696300267863
"157","Fine.sediment","Unnamed: Central Lowlands 3",8,352,28,1.14529648239656,63.0598326129142
"158","Fine.sediment","Porter Creek",627,14052,2617,4.88643478172618,788.330379953402
"159","Fine.sediment","Unnamed: Black Hills 3",0,0,0,0,NA
"160","Fine.sediment","Mox Chehalis Creek",2592,63553,6666,7.44530392816023,2994.15326210999
"161","Fine.sediment","Unnamed: Black Hills 2",0,0,0,0,NA
"162","Fine.sediment","Unnamed: Central Lowlands 2",482,12075,1622,2.74638987869416,757.997934871456
"163","Fine.sediment","Cloquallum Creek",5288,132202,14115,6.1917351335732,6306.54194483156
"164","Fine.sediment","Unnamed: Black Hills 1",1623,44847,3302,4.62890434824231,2070.2424302906
"165","Fine.sediment","Unnamed: Central Lowlands 1",143,4629,488,4.25588731262036,186.920438967807
"166","Fine.sediment","Satsop River",26310,653181,60753,7.40114274818645,30420.2036050444
"167","Fine.sediment","Unnamed: Olympic Mountains 1",0,0,0,0.664930558737304,NA
"168","Fine.sediment","Wynoochee River",7325,203362,0,6.10000357694614,8761.27350245628
"169","Fine.sediment","Wishkah River",3511,95535,0,3.17573659418762,5124.70636931854
"170","Fine.sediment","Hoquiam River",5227,144447,0,6.88175459079108,6115.68039618378
"171","Fine.sediment","Humptulips River",15769,423191,0,6.20022387795711,18801.3694460237
"172","Fine.sediment","Johns River",784,20999,0,3.44382811080894,1104.80816016986
"173","Fine.sediment","Elk River",666,18281,0,4.13842482650558,878.208364646906
"174","Fine.sediment","Andrews",124,3309,0,3.52280335814491,173.151670739483
"175","Fine.sediment","Upper Chehalis Estuary",87,2621,0,1.77915099740937,198.659999524186
"176","Fine.sediment","Lower Chehalis Estuary",0,0,0,0,NA
"177","Fine.sediment","Upper Skookumchuck",0,0,0,0,NA
"178","Fine.sediment","Mainstem: Upper Chehalis 1",0,0,0,1.05336264235818,0
"179","Fine.sediment","Mainstem: Upper Chehalis 2",0,0,0,1.59166693820922,0
"180","Fine.sediment","Mainstem: Middle Chehalis 1",2,54,0,1.05803322841132,36.4630146340435
"181","Fine.sediment","Mainstem: Middle Chehalis 2",0,0,0,0.380445562238946,NA
"182","Fine.sediment","Mainstem: Middle Chehalis 3",0,0,0,0,NA
"183","Fine.sediment","Mainstem: Lower Chehalis 1",0,0,0,0.276209033607675,NA
"184","Fine.sediment","Mainstem: Lower Chehalis 2",248,6723,0,1.65652919369909,625.744055222724
"185","Fine.sediment","Mainstem: Lower Chehalis 3",71,1918,0,1.3881964919831,253.897067506451
"186","Fine.sediment","Mainstem: Lower Chehalis 4",0,0,0,1.14296942256152,0
"187","Fine.sediment","Mainstem: Lower Chehalis 5",221,5991,0,2.49314214992935,369.010020352354
"188","Fine.sediment","Mainstem: Lower Chehalis 6",0,0,0,1.10709577599033,0
"189","Fine.sediment","Mainstem: Lower Chehalis 7",0,0,0,1.91821375635137,0
"190","Wood","Upper Chehalis: Above Proposed Dam",1326,31548,4140,2.75248945814604,2082.63793230618
"191","Wood","Upper Chehalis: Proposed Dam to Elk Creek",1036,25581,3223,3.62902137912277,1430.0629803268
"192","Wood","Elk Creek",2285,54464,6344,3.94685023825542,3060.40418251888
"193","Wood","Unnamed: Willapa Hills 3",154,3815,329,2.21852534482623,280.382270712606
"194","Wood","South Fork Chehalis",5724,142551,11767,3.42064780602831,8088.65626504819
"195","Wood","Unnamed: Willapa Hills 2",398,11707,1174,3.48499987301793,558.160973978902
"196","Wood","Unnamed: Willapa Hills 1",0,0,0,0,NA
"197","Wood","Unnamed: Willapa Hills 4",39,1662,116,2.00150312636358,77.9414660557353
"198","Wood","Stearns Creek",744,19496,1703,3.78345091718798,1011.29409719631
"199","Wood","Bunker Creek",542,14396,1140,2.30129252123886,958.508964090566
"200","Wood","Unnamed: Central Lowlands 9",25,808,57,1.45958244621039,79.3972038230448
"201","Wood","Newaukum River",6785,168834,15220,3.5282530105884,9468.67128273326
"202","Wood","Dillenbaugh Creek",89,3593,189,1.66185501635256,223.470537808224
"203","Wood","Unnamed: Central Lowlands 8",22,561,35,1.25742970668061,107.460222457136
"204","Wood","Salzer Creek",67,2030,125,1.49667573232779,201.896866585343
"205","Wood","Unnamed: Cascade Mountains 1",0,0,0,0.342198833556684,NA
"206","Wood","Unnamed: Central Lowlands 7",0,0,0,0.26686233414016,NA
"207","Wood","Skookumchuck River",7474,200569,13674,2.89281591304703,11422.6143097606
"208","Wood","Lincoln Creek",1600,39544,4330,3.19447515480024,2329.10372054116
"209","Wood","Unnamed: Central Lowlands 6",1573,39942,3786,5.57436416123991,1916.87292846699
"210","Wood","Unnamed: Black River 1",399,11756,912,2.72471080660664,630.343132119077
"211","Wood","Scatter Creek",1170,29829,2562,3.57814161970042,1623.81525633024
"212","Wood","Black River",7785,208847,15663,4.21993247994603,10202.7525611129
"213","Wood","Unnamed: Central Lowlands 5",13,853,57,1.40422740879166,45.1601151165386
"214","Wood","Garrard Creek",790,20137,1910,3.0513168120881,1175.11847382357
"215","Wood","Unnamed: Black Hills 5",195,4929,464,3.33488120723422,278.51602616691
"216","Wood","Unnamed: Central Lowlands 4",328,8233,486,5.62053769641992,398.98740916109
"217","Wood","Rock Creek (Lower Chehalis)",1003,24440,2234,4.12111604306639,1324.35940675073
"218","Wood","Cedar Creek",1546,36792,4239,5.5762830904784,1883.82875085168
"219","Wood","Unnamed: Black Hills 4",76,1824,197,3.64386361923824,104.74580952171
"220","Wood","Unnamed: Central Lowlands 3",6,294,16,1.05475908510727,115.57085912312
"221","Wood","Porter Creek",891,20792,2883,4.91598817919351,1118.5287767042
"222","Wood","Unnamed: Black Hills 3",0,0,0,0,NA
"223","Wood","Mox Chehalis Creek",2749,68451,6054,5.3917919271298,3374.94040100542
"224","Wood","Unnamed: Black Hills 2",0,0,0,0,NA
"225","Wood","Unnamed: Central Lowlands 2",620,16070,1522,2.52213027833972,1027.32387287918
"226","Wood","Cloquallum Creek",5719,147140,12575,4.25293285200505,7477.10576491762
"227","Wood","Unnamed: Black Hills 1",1708,47890,2915,3.24373197136673,2469.23174327262
"228","Wood","Unnamed: Central Lowlands 1",167,5334,444,3.21983898779228,242.230681557714
"229","Wood","Satsop River",27941,709207,56928,5.15088214377515,34672.3402385807
"230","Wood","Unnamed: Olympic Mountains 1",0,0,0,0.855612869400461,NA
"231","Wood","Wynoochee River",8607,239068,0,5.25285170749609,10630.818508609
"232","Wood","Wishkah River",4637,126884,0,3.18630732333485,6757.92780850545
"233","Wood","Hoquiam River",5947,165512,0,5.23452884110349,7351.40654040988
"234","Wood","Humptulips River",17445,470501,0,5.43245289935966,21380.7440216726
"235","Wood","Johns River",1078,28862,0,3.35395416547265,1535.95284199323
"236","Wood","Elk River",885,24485,0,4.12776769468099,1167.94940238209
"237","Wood","Andrews",165,4403,0,3.34152631746429,235.466856925479
"238","Wood","Upper Chehalis Estuary",114,3481,0,1.80812006098408,255.068147548741
"239","Wood","Lower Chehalis Estuary",0,0,0,0,NA
"240","Wood","Upper Skookumchuck",0,0,0,0,NA
"241","Wood","Mainstem: Upper Chehalis 1",0,0,0,0.737929413559065,NA
"242","Wood","Mainstem: Upper Chehalis 2",0,0,0,1.15574801835481,0
"243","Wood","Mainstem: Middle Chehalis 1",0,0,0,0.776256479385667,NA
"244","Wood","Mainstem: Middle Chehalis 2",0,0,0,0.293751929212139,NA
"245","Wood","Mainstem: Middle Chehalis 3",0,0,0,0,NA
"246","Wood","Mainstem: Lower Chehalis 1",0,0,0,0.242543831981702,NA
"247","Wood","Mainstem: Lower Chehalis 2",46,1234,0,1.18419726246212,295.732267380797
"248","Wood","Mainstem: Lower Chehalis 3",1,35,0,1.09838549863158,11.1640995259339
"249","Wood","Mainstem: Lower Chehalis 4",0,0,0,0.899856659815387,NA
"250","Wood","Mainstem: Lower Chehalis 5",200,5423,0,1.99268567865977,401.473642966242
"251","Wood","Mainstem: Lower Chehalis 6",0,0,0,0.92579284061011,NA
"252","Wood","Mainstem: Lower Chehalis 7",0,0,0,1.38252220849037,0
"253","Shade","Upper Chehalis: Above Proposed Dam",971,21996,4046,2.27102854837784,1734.9482222797
"254","Shade","Upper Chehalis: Proposed Dam to Elk Creek",709,16989,2630,2.81406468207152,1099.83501652784
"255","Shade","Elk Creek",1472,34441,4731,2.96022751565127,2222.93324027285
"256","Shade","Unnamed: Willapa Hills 3",92,2265,214,1.83984355293847,201.544211750043
"257","Shade","South Fork Chehalis",5119,123153,14208,3.23125065319788,7413.22902024178
"258","Shade","Unnamed: Willapa Hills 2",254,7191,823,3.00744449236851,380.52902780904
"259","Shade","Unnamed: Willapa Hills 1",0,0,0,0,NA
"260","Shade","Unnamed: Willapa Hills 4",31,1214,113,2.01341997974429,61.5894896682638
"261","Shade","Stearns Creek",713,18009,1988,4.04578296926687,947.09415811778
"262","Shade","Bunker Creek",487,12465,1405,2.39326850084573,836.537795266588
"263","Shade","Unnamed: Central Lowlands 9",27,813,82,1.62823040721002,69.9778624054624
"264","Shade","Newaukum River",5670,133807,19385,3.06425050908787,8416.75964716385
"265","Shade","Dillenbaugh Creek",135,5219,405,2.28189362728905,240.312950408762
"266","Shade","Unnamed: Central Lowlands 8",49,1194,149,1.8828273562855,104.503490746105
"267","Shade","Salzer Creek",94,2672,283,1.82934245137182,207.342805308608
"268","Shade","Unnamed: Cascade Mountains 1",0,0,0,0.286791547851343,NA
"269","Shade","Unnamed: Central Lowlands 7",0,0,0,0.295744185100235,NA
"270","Shade","Skookumchuck River",8364,211949,23054,3.50199547854533,11706.9317006052
"271","Shade","Lincoln Creek",1424,34178,4723,3.13872385144395,2089.81760849517
"272","Shade","Unnamed: Central Lowlands 6",1240,31059,3428,5.00568405792182,1549.56011060027
"273","Shade","Unnamed: Black River 1",287,8228,790,2.41764295032059,489.448719499573
"274","Shade","Scatter Creek",1184,29457,3308,3.90418840488671,1591.6870488181
"275","Shade","Black River",5988,158051,14385,3.85579883141808,8084.78634717649
"276","Shade","Unnamed: Central Lowlands 5",1,56,4,0.760047954939412,NA
"277","Shade","Garrard Creek",567,14002,1663,2.6173370063264,917.576285450783
"278","Shade","Unnamed: Black Hills 5",173,4234,504,3.29889848997567,248.253431482236
"279","Shade","Unnamed: Central Lowlands 4",81,2016,147,3.04924123681806,120.526825121757
"280","Shade","Rock Creek (Lower Chehalis)",768,18369,2064,3.5300274545099,1071.55401821075
"281","Shade","Cedar Creek",1091,25347,3607,4.37309769118784,1414.44156614563
"282","Shade","Unnamed: Black Hills 4",42,979,124,2.39197757916351,72.17289978567
"283","Shade","Unnamed: Central Lowlands 3",1,42,3,0.890511772726292,NA
"284","Shade","Porter Creek",540,12127,2217,3.27918175662864,776.927133358055
"285","Shade","Unnamed: Black Hills 3",0,0,0,0,NA
"286","Shade","Mox Chehalis Creek",2287,55901,6042,5.08618443251528,2846.6908406291
"287","Shade","Unnamed: Black Hills 2",0,0,0,0,NA
"288","Shade","Unnamed: Central Lowlands 2",359,9056,1147,1.92407720124238,747.495679275866
"289","Shade","Cloquallum Creek",4570,114409,12049,3.8751725270198,6159.46983426311
"290","Shade","Unnamed: Black Hills 1",1214,33474,2538,3.00052664431306,1820.84020552841
"291","Shade","Unnamed: Central Lowlands 1",119,3869,391,2.8364176333304,183.800074797904
"292","Shade","Satsop River",24640,609991,58607,4.76599934937027,31182.7520597209
"293","Shade","Unnamed: Olympic Mountains 1",0,0,0,0.769580473276311,NA
"294","Shade","Wynoochee River",6966,193397,0,4.58629308599027,8908.39562494556
"295","Shade","Wishkah River",2517,68480,0,2.02805892560851,4965.30324148024
"296","Shade","Hoquiam River",4393,121408,0,4.20699690198588,5762.8173507058
"297","Shade","Humptulips River",15383,412817,0,5.0071737716016,19221.8652144356
"298","Shade","Johns River",605,16196,0,2.33185222579227,1059.25459993514
"299","Shade","Elk River",546,14996,0,2.88867485443873,835.091581177565
"300","Shade","Andrews",105,2803,0,2.53645061672115,173.339326274003
"301","Shade","Upper Chehalis Estuary",73,2179,0,1.51419600024245,214.969210117502
"302","Shade","Lower Chehalis Estuary",0,0,0,0,NA
"303","Shade","Upper Skookumchuck",0,0,0,0,NA
"304","Shade","Mainstem: Upper Chehalis 1",0,0,0,0.676788704801789,NA
"305","Shade","Mainstem: Upper Chehalis 2",0,0,0,1.00887454241205,0
"306","Shade","Mainstem: Middle Chehalis 1",0,0,0,0.765376091185907,NA
"307","Shade","Mainstem: Middle Chehalis 2",0,0,0,0.362839016567489,NA
"308","Shade","Mainstem: Middle Chehalis 3",0,0,0,0,NA
"309","Shade","Mainstem: Lower Chehalis 1",0,0,0,0.460115262592096,NA
"310","Shade","Mainstem: Lower Chehalis 2",97,2624,0,1.20139663293204,578.636651953036
"311","Shade","Mainstem: Lower Chehalis 3",44,1203,0,1.24822298772113,221.259972591389
"312","Shade","Mainstem: Lower Chehalis 4",0,0,0,0.955984775050486,NA
"313","Shade","Mainstem: Lower Chehalis 5",321,8707,0,2.45128379085115,542.183480463004
"314","Shade","Mainstem: Lower Chehalis 6",0,0,0,1.08885390018111,0
"315","Shade","Mainstem: Lower Chehalis 7",0,0,0,1.52628237181608,0
"316","LR","Upper Chehalis: Above Proposed Dam",852,19447,3420,2.05386491504049,1660.45276072908
"317","LR","Upper Chehalis: Proposed Dam to Elk Creek",641,15437,2307,2.57012644463291,1049.247375357
"318","LR","Elk Creek",1393,32611,4458,2.7971866788539,2168.10033675986
"319","LR","Unnamed: Willapa Hills 3",61,1503,138,1.51947663789701,178.425877411823
"320","LR","South Fork Chehalis",4428,107148,11682,2.89135227074533,6769.18205714002
"321","LR","Unnamed: Willapa Hills 2",233,6616,732,2.80577259779277,362.030643329509
"322","LR","Unnamed: Willapa Hills 1",0,0,0,0,NA
"323","LR","Unnamed: Willapa Hills 4",19,767,69,1.55127332472583,53.4656618555765
"324","LR","Stearns Creek",473,12029,1236,2.85650089288596,727.780378405697
"325","LR","Bunker Creek",304,7830,814,1.78677705320666,690.386459494451
"326","LR","Unnamed: Central Lowlands 9",6,170,16,1.02910292422519,212.164849744085
"327","LR","Newaukum River",4816,115459,14668,2.72666570222644,7605.19074710874
"328","LR","Dillenbaugh Creek",37,1432,104,1.30778648699415,157.213204813968
"329","LR","Unnamed: Central Lowlands 8",0,0,0,0.845532450475487,NA
"330","LR","Salzer Creek",8,220,20,1.03026378508977,272.342347669651
"331","LR","Unnamed: Cascade Mountains 1",0,0,0,0.176355499463347,NA
"332","LR","Unnamed: Central Lowlands 7",0,0,0,0.200858425879145,NA
"333","LR","Skookumchuck River",5639,144314,14114,2.47901370448742,9451.67596296839
"334","LR","Lincoln Creek",1002,24187,3205,2.3622070162597,1737.57101676899
"335","LR","Unnamed: Central Lowlands 6",1177,29530,3206,4.81113023826643,1485.83226927857
"336","LR","Unnamed: Black River 1",252,7215,701,2.25203802593166,453.271842213005
"337","LR","Scatter Creek",891,22266,2390,3.06166537734096,1323.17488628012
"338","LR","Black River",4862,128111,11903,3.28633351553585,6988.54889016071
"339","LR","Unnamed: Central Lowlands 5",0,33,3,0.73140991127891,NA
"340","LR","Garrard Creek",447,11070,1290,2.19867987000817,819.9102416619
"341","LR","Unnamed: Black Hills 5",133,3263,379,2.6538711703776,213.417388235647
"342","LR","Unnamed: Central Lowlands 4",81,2007,151,3.02714284326238,120.957716975506
"343","LR","Rock Creek (Lower Chehalis)",694,16554,1897,3.16078749751063,1015.17920008309
"344","LR","Cedar Creek",1041,24109,3520,4.09724470832921,1377.10518316506
"345","LR","Unnamed: Black Hills 4",41,952,125,2.30883005798001,72.3256864403601
"346","LR","Unnamed: Central Lowlands 3",0,7,1,0.82577022553141,NA
"347","LR","Porter Creek",507,11460,2015,3.08138015990451,750.588369759064
"348","LR","Unnamed: Black Hills 3",0,0,0,0,NA
"349","LR","Mox Chehalis Creek",2204,53984,5705,4.89016792897527,2770.55651895741
"350","LR","Unnamed: Black Hills 2",0,0,0,0,NA
"351","LR","Unnamed: Central Lowlands 2",245,6231,739,1.57849119529474,668.515521053302
"352","LR","Cloquallum Creek",4062,101999,10396,3.4636209912815,5710.79257579595
"353","LR","Unnamed: Black Hills 1",1045,28801,2196,2.70893371421607,1656.49241267053
"354","LR","Unnamed: Central Lowlands 1",101,3293,323,2.45416532845284,170.455651309923
"355","LR","Satsop River",23151,574268,53942,4.45861088523306,29844.7278486128
"356","LR","Unnamed: Olympic Mountains 1",0,0,0,0.575896163751843,NA
"357","LR","Wynoochee River",6854,190298,0,4.29591992222815,8933.54081462224
"358","LR","Wishkah River",2304,62689,0,1.89296121855952,4884.17924195711
"359","LR","Hoquiam River",4275,118129,0,4.07727231651976,5664.21731984864
"360","LR","Humptulips River",14628,392550,0,4.68830049858182,18594.0542858763
"361","LR","Johns River",556,14872,0,2.17934147959297,1027.44954164751
"362","LR","Elk River",519,14248,0,2.75604319325845,814.550816740996
"363","LR","Andrews",86,2287,0,2.1282101525168,162.226933260751
"364","LR","Upper Chehalis Estuary",38,1129,0,1.23038781429505,202.939279085891
"365","LR","Lower Chehalis Estuary",0,0,0,0,NA
"366","LR","Upper Skookumchuck",0,0,0,0,NA
"367","LR","Mainstem: Upper Chehalis 1",0,0,0,0.559282961876898,NA
"368","LR","Mainstem: Upper Chehalis 2",0,0,0,0.861592627099665,NA
"369","LR","Mainstem: Middle Chehalis 1",0,0,0,0.581142796988586,NA
"370","LR","Mainstem: Middle Chehalis 2",0,0,0,0.238809984594173,NA
"371","LR","Mainstem: Middle Chehalis 3",0,0,0,0,NA
"372","LR","Mainstem: Lower Chehalis 1",0,0,0,0.179723737739077,NA
"373","LR","Mainstem: Lower Chehalis 2",7,177,0,1.03140561786206,229.890058420273
"374","LR","Mainstem: Lower Chehalis 3",0,0,0,0.890759503799354,NA
"375","LR","Mainstem: Lower Chehalis 4",0,0,0,0.791489518113518,NA
"376","LR","Mainstem: Lower Chehalis 5",134,3649,0,1.65868324346979,337.436175625357
"377","LR","Mainstem: Lower Chehalis 6",0,0,0,0.782911572859583,NA
"378","LR","Mainstem: Lower Chehalis 7",0,0,0,1.118097976137,0
"379","Beaver","Upper Chehalis: Above Proposed Dam",2908,74436,3557,3.1591941625608,4254.79875039636
"380","Beaver","Upper Chehalis: Proposed Dam to Elk Creek",1904,50751,1920,3.42740340959782,2688.3772454433
"381","Beaver","Elk Creek",2978,76451,2800,3.38426321474629,4227.02317058853
"382","Beaver","Unnamed: Willapa Hills 3",99,2575,92,1.63576845864064,254.717067518063
"383","Beaver","South Fork Chehalis",8163,211334,7585,3.203572098039,11867.439717341
"384","Beaver","Unnamed: Willapa Hills 2",403,12305,394,3.06127221673984,598.510324510848
"385","Beaver","Unnamed: Willapa Hills 1",0,0,0,0,NA
"386","Beaver","Unnamed: Willapa Hills 4",33,1378,39,1.82637193831588,72.9335922118228
"387","Beaver","Stearns Creek",863,23453,746,3.00775008238575,1292.83437409427
"388","Beaver","Bunker Creek",701,19371,603,2.09590768529995,1340.65241726372
"389","Beaver","Unnamed: Central Lowlands 9",20,667,19,1.27501936345289,92.7221521746617
"390","Beaver","Newaukum River",11164,292242,9194,3.4956151142553,15637.4462202243
"391","Beaver","Dillenbaugh Creek",57,2318,51,1.38368113549282,205.56086142152
"392","Beaver","Unnamed: Central Lowlands 8",17,466,11,1.12042181225016,158.170438165178
"393","Beaver","Salzer Creek",98,3004,68,1.31876621761372,405.435338454705
"394","Beaver","Unnamed: Cascade Mountains 1",0,0,0,0.294074418364995,NA
"395","Beaver","Unnamed: Central Lowlands 7",0,0,0,0.272728048161232,NA
"396","Beaver","Skookumchuck River",8232,224201,6306,2.84527024725844,12693.1351709759
"397","Beaver","Lincoln Creek",2016,52631,2466,2.78016771403265,3148.47756607894
"398","Beaver","Unnamed: Central Lowlands 6",1522,40845,1479,4.51665230952536,1954.79797547157
"399","Beaver","Unnamed: Black River 1",265,8028,293,2.09677663397375,506.617109438112
"400","Beaver","Scatter Creek",1926,51193,2087,3.44826390678139,2712.67989781053
"401","Beaver","Black River",6300,174195,6789,3.42145436336354,8901.74219895226
"402","Beaver","Unnamed: Central Lowlands 5",0,4,0,0.69577229048191,NA
"403","Beaver","Garrard Creek",941,24986,1003,2.53321205404267,1554.74419638747
"404","Beaver","Unnamed: Black Hills 5",198,5185,234,2.80848325452358,307.484010706065
"405","Beaver","Unnamed: Central Lowlands 4",74,1922,52,3.03084079211764,110.438109913499
"406","Beaver","Rock Creek (Lower Chehalis)",1368,35148,1255,3.59136158823836,1895.90780190965
"407","Beaver","Cedar Creek",2341,59595,2524,5.13344102437949,2907.35621173558
"408","Beaver","Unnamed: Black Hills 4",123,3162,107,3.29707934688208,176.546256539615
"409","Beaver","Unnamed: Central Lowlands 3",6,295,8,1.03129211871764,197.741570909287
"410","Beaver","Porter Creek",1455,36766,1902,4.54645801339905,1865.26849732967
"411","Beaver","Unnamed: Black Hills 3",0,0,0,0,NA
"412","Beaver","Mox Chehalis Creek",2716,70511,3046,4.99079658354994,3396.5658828103
"413","Beaver","Unnamed: Black Hills 2",0,0,0,0,NA
"414","Beaver","Unnamed: Central Lowlands 2",822,22513,848,2.10676374935229,1564.70593022319
"415","Beaver","Cloquallum Creek",6232,165527,6831,3.67342827071822,8563.08928646354
"416","Beaver","Unnamed: Black Hills 1",1109,31931,979,2.60777898551131,1798.77142380506
"417","Beaver","Unnamed: Central Lowlands 1",200,6919,224,2.98119958649237,300.948940916191
"418","Beaver","Satsop River",35135,911560,40216,4.91229990235116,44115.6509922424
"419","Beaver","Unnamed: Olympic Mountains 1",0,2,0,0.881807936316129,NA
"420","Beaver","Wynoochee River",16097,446988,0,5.73024200209753,19499.9971390179
"421","Beaver","Wishkah River",6470,175827,0,2.46430353961098,10888.4827974389
"422","Beaver","Hoquiam River",7082,195412,0,4.27466947371018,9244.66101261699
"423","Beaver","Humptulips River",23703,635659,0,5.11771007390545,29459.3547638309
"424","Beaver","Johns River",1762,47162,0,2.7814676822446,2751.07211035113
"425","Beaver","Elk River",1281,35157,0,3.18510047064437,1867.2430662615
"426","Beaver","Andrews",266,7096,0,2.7522034758004,417.808853066275
"427","Beaver","Upper Chehalis Estuary",130,3896,0,1.49820339513751,390.937603534636
"428","Beaver","Lower Chehalis Estuary",0,0,0,0,NA
"429","Beaver","Upper Skookumchuck",0,0,0,0,NA
"430","Beaver","Mainstem: Upper Chehalis 1",0,0,0,0.560685695506189,NA
"431","Beaver","Mainstem: Upper Chehalis 2",0,0,0,0.86171990022845,NA
"432","Beaver","Mainstem: Middle Chehalis 1",0,0,0,0.575227502556655,NA
"433","Beaver","Mainstem: Middle Chehalis 2",0,0,0,0.241882219410909,NA
"434","Beaver","Mainstem: Middle Chehalis 3",0,0,0,0,NA
"435","Beaver","Mainstem: Lower Chehalis 1",0,0,0,0.182197955524567,NA
"436","Beaver","Mainstem: Lower Chehalis 2",22,574,0,1.08896968987124,269.275224088551
"437","Beaver","Mainstem: Lower Chehalis 3",0,0,0,0.924268535560573,NA
"438","Beaver","Mainstem: Lower Chehalis 4",0,0,0,0.815610189322443,NA
"439","Beaver","Mainstem: Lower Chehalis 5",151,4105,0,1.70136615886202,366.294105784917
"440","Beaver","Mainstem: Lower Chehalis 6",0,0,0,0.797335070800812,NA
"441","Beaver","Mainstem: Lower Chehalis 7",0,0,0,1.12676970719761,0
"442","Floodplain","Upper Chehalis: Above Proposed Dam",912,22258,2204,2.21068586612788,1665.29201861159
"443","Floodplain","Upper Chehalis: Proposed Dam to Elk Creek",827,21178,1728,2.94958623131887,1251.19257312899
"444","Floodplain","Elk Creek",1981,49130,3608,3.27551123116826,2851.57359808457
"445","Floodplain","Unnamed: Willapa Hills 3",79,2016,124,1.66032075708726,198.638825755647
"446","Floodplain","South Fork Chehalis",6655,166132,12444,3.47916129714424,9339.37556187487
"447","Floodplain","Unnamed: Willapa Hills 2",244,7189,497,2.95448908595957,368.84080967902
"448","Floodplain","Unnamed: Willapa Hills 1",0,0,0,0,NA
"449","Floodplain","Unnamed: Willapa Hills 4",43,1671,93,2.24538290094197,77.5275336344157
"450","Floodplain","Stearns Creek",719,18884,1299,3.27291599306452,1035.33373261217
"451","Floodplain","Bunker Creek",375,9930,743,1.9489763643702,770.162634265262
"452","Floodplain","Unnamed: Central Lowlands 9",180,5829,218,3.44693147557158,253.561520539906
"453","Floodplain","Newaukum River",8493,214232,15229,3.49619371506947,11895.3801713497
"454","Floodplain","Dillenbaugh Creek",46,1839,89,1.39052417904885,163.790401895311
"455","Floodplain","Unnamed: Central Lowlands 8",56,1464,67,1.58368234311636,151.942597305596
"456","Floodplain","Salzer Creek",60,1808,90,1.37129026275418,221.598635943016
"457","Floodplain","Unnamed: Cascade Mountains 1",0,0,0,0.189042463424665,NA
"458","Floodplain","Unnamed: Central Lowlands 7",0,0,0,0.537314002680182,NA
"459","Floodplain","Skookumchuck River",12681,339389,16007,3.41913740284489,17922.951112445
"460","Floodplain","Lincoln Creek",1695,43884,2432,2.94325408672286,2567.24826211917
"461","Floodplain","Unnamed: Central Lowlands 6",1301,34524,1664,4.94446083557395,1630.82961530931
"462","Floodplain","Unnamed: Black River 1",367,11011,447,2.59669407656714,596.849916390397
"463","Floodplain","Scatter Creek",1511,39707,2097,3.90987465979442,2030.26635221695
"464","Floodplain","Black River",8136,222953,11316,4.14888143385856,10719.7746421688
"465","Floodplain","Unnamed: Central Lowlands 5",1,72,3,0.753584032497375,NA
"466","Floodplain","Garrard Creek",758,19691,1256,2.77984137247076,1183.88064966023
"467","Floodplain","Unnamed: Black Hills 5",151,3848,279,2.81766028254132,234.073829279519
"468","Floodplain","Unnamed: Central Lowlands 4",93,2383,83,3.19763054219184,135.318305199401
"469","Floodplain","Rock Creek (Lower Chehalis)",792,19925,1135,3.41684261628997,1119.70027914179
"470","Floodplain","Cedar Creek",1360,33791,2290,4.72203409788149,1725.39160153694
"471","Floodplain","Unnamed: Black Hills 4",41,1015,69,2.37552522018708,70.8067962682821
"472","Floodplain","Unnamed: Central Lowlands 3",3,132,5,0.953204425691946,NA
"473","Floodplain","Porter Creek",525,12421,1541,3.17548201231327,766.325828955831
"474","Floodplain","Unnamed: Black Hills 3",0,0,0,0,NA
"475","Floodplain","Mox Chehalis Creek",2966,75445,4887,5.32836705450682,3651.24687547275
"476","Floodplain","Unnamed: Black Hills 2",0,0,0,0,NA
"477","Floodplain","Unnamed: Central Lowlands 2",308,8143,607,1.69844132117716,748.981927416457
"478","Floodplain","Cloquallum Creek",5218,135141,9243,3.80668561506703,7077.13234171594
"479","Floodplain","Unnamed: Black Hills 1",995,28111,1415,2.74903079433989,1563.88649600679
"480","Floodplain","Unnamed: Central Lowlands 1",105,3543,188,2.52063622874676,174.050044984484
"481","Floodplain","Satsop River",33598,863510,48026,5.06771594354356,41857.6721271376
"482","Floodplain","Unnamed: Olympic Mountains 1",0,0,0,0.75966452768045,NA
"483","Floodplain","Wynoochee River",11237,311671,0,5.06020938944077,14004.5912550775
"484","Floodplain","Wishkah River",4088,111174,0,2.25903319563173,7334.93583472104
"485","Floodplain","Hoquiam River",4426,122315,0,4.1493750070847,5831.35820283182
"486","Floodplain","Humptulips River",21508,577097,0,5.17162976206952,26663.7787307879
"487","Floodplain","Johns River",815,21812,0,2.470499763991,1369.23334294734
"488","Floodplain","Elk River",562,15438,0,2.81974492598808,870.834492116991
"489","Floodplain","Andrews",86,2287,0,2.1282101525168,162.226933260751
"490","Floodplain","Upper Chehalis Estuary",68,2044,0,1.40065068593002,237.723907603335
"491","Floodplain","Lower Chehalis Estuary",0,0,0,0,NA
"492","Floodplain","Upper Skookumchuck",0,0,0,0,NA
"493","Floodplain","Mainstem: Upper Chehalis 1",0,0,0,0.786935503777556,NA
"494","Floodplain","Mainstem: Upper Chehalis 2",17,454,0,1.61636365743089,44.5811200012324
"495","Floodplain","Mainstem: Middle Chehalis 1",169,4523,0,1.47350822829789,525.910376420489
"496","Floodplain","Mainstem: Middle Chehalis 2",0,0,0,0.585502606857167,NA
"497","Floodplain","Mainstem: Middle Chehalis 3",0,0,0,0.27079825148055,NA
"498","Floodplain","Mainstem: Lower Chehalis 1",0,0,0,0.896867642936541,NA
"499","Floodplain","Mainstem: Lower Chehalis 2",632,17120,0,1.68539142538987,1554.10082675094
"500","Floodplain","Mainstem: Lower Chehalis 3",567,15381,0,2.03160385435896,1116.62958659391
"501","Floodplain","Mainstem: Lower Chehalis 4",41,1105,0,1.28253565759835,186.114426789576
"502","Floodplain","Mainstem: Lower Chehalis 5",845,22929,0,3.53481684155302,1178.35741902452
"503","Floodplain","Mainstem: Lower Chehalis 6",171,4635,0,1.35848521529193,648.007119695989
"504","Floodplain","Mainstem: Lower Chehalis 7",0,0,0,1.62442985714251,0
"505","FP.wood.comb","Upper Chehalis: Above Proposed Dam",1407,34350,3508,2.91932003413804,2140.0721166738
"506","FP.wood.comb","Upper Chehalis: Proposed Dam to Elk Creek",1245,31505,3116,3.90493097694281,1673.58161170847
"507","FP.wood.comb","Elk Creek",3052,74697,6531,4.31801351002709,3971.82747833208
"508","FP.wood.comb","Unnamed: Willapa Hills 3",183,4563,352,2.34824118754128,318.732390978003
"509","FP.wood.comb","South Fork Chehalis",8153,203561,16246,3.90689292550052,10957.712870047
"510","FP.wood.comb","Unnamed: Willapa Hills 2",406,12116,1023,3.6036425427459,561.935384114525
"511","FP.wood.comb","Unnamed: Willapa Hills 1",0,0,0,0,NA
"512","FP.wood.comb","Unnamed: Willapa Hills 4",75,3061,197,2.66888139549121,119.940281677671
"513","FP.wood.comb","Stearns Creek",1129,29435,2714,4.09657826981027,1493.5959835755
"514","FP.wood.comb","Bunker Creek",621,16455,1365,2.42872826490623,1055.65228151048
"515","FP.wood.comb","Unnamed: Central Lowlands 9",394,13041,548,4.22010818811558,516.356137428591
"516","FP.wood.comb","Newaukum River",10839,273058,20939,4.15939379427796,14269.7214313172
"517","FP.wood.comb","Dillenbaugh Creek",99,3986,209,1.73240322578139,234.171441789293
"518","FP.wood.comb","Unnamed: Central Lowlands 8",100,2589,133,1.94455063199967,205.870449515547
"519","FP.wood.comb","Salzer Creek",126,3812,214,1.75944072640022,291.911565735017
"520","FP.wood.comb","Unnamed: Cascade Mountains 1",0,0,0,0.368939398081406,NA
"521","FP.wood.comb","Unnamed: Central Lowlands 7",0,0,0,0.574087495995356,NA
"522","FP.wood.comb","Skookumchuck River",16818,457480,22763,3.75250628838286,22928.0677847609
"523","FP.wood.comb","Lincoln Creek",2467,63444,4189,3.66374398415931,3393.14005500179
"524","FP.wood.comb","Unnamed: Central Lowlands 6",1739,45618,2735,5.57555433445033,2119.06323887506
"525","FP.wood.comb","Unnamed: Black River 1",563,16975,786,3.02616288840013,840.865122899644
"526","FP.wood.comb","Scatter Creek",1829,47852,2768,4.24621874041499,2392.4247554637
"527","FP.wood.comb","Black River",12535,341764,19740,5.07083349633485,15614.2219851993
"528","FP.wood.comb","Unnamed: Central Lowlands 5",13,904,45,1.42948154423986,43.2690538728704
"529","FP.wood.comb","Garrard Creek",1196,31030,2338,3.57684349954214,1660.1337357944
"530","FP.wood.comb","Unnamed: Black Hills 5",216,5514,451,3.46259312137955,303.712419126306
"531","FP.wood.comb","Unnamed: Central Lowlands 4",415,10622,394,5.86213825161826,500.35339361481
"532","FP.wood.comb","Rock Creek (Lower Chehalis)",1114,27839,1804,4.32396461080951,1449.14195559642
"533","FP.wood.comb","Cedar Creek",1922,47274,3719,6.00713894937755,2305.85194008625
"534","FP.wood.comb","Unnamed: Black Hills 4",76,1870,151,3.73225440795169,103.815857768887
"535","FP.wood.comb","Unnamed: Central Lowlands 3",10,483,17,1.14807356497994,77.533999072387
"536","FP.wood.comb","Porter Creek",930,21612,3102,5.03893398739608,1160.25877692039
"537","FP.wood.comb","Unnamed: Black Hills 3",0,0,0,0,NA
"538","FP.wood.comb","Mox Chehalis Creek",3733,93833,7358,5.70939621815945,4525.67061573744
"539","FP.wood.comb","Unnamed: Black Hills 2",0,0,0,0,NA
"540","FP.wood.comb","Unnamed: Central Lowlands 2",687,17942,1553,2.63006950237695,1108.45442203429
"541","FP.wood.comb","Cloquallum Creek",7173,185114,15214,4.51578101598528,9213.22945894137
"542","FP.wood.comb","Unnamed: Black Hills 1",1537,43166,2579,3.26124114032391,2216.7152115231
"543","FP.wood.comb","Unnamed: Central Lowlands 1",169,5482,335,3.27823211237454,243.180325649021
"544","FP.wood.comb","Satsop River",39272,1014514,61902,5.64907086906072,47719.2792749521
"545","FP.wood.comb","Unnamed: Olympic Mountains 1",1,37,1,0.953536010663812,NA
"546","FP.wood.comb","Wynoochee River",13612,377535,0,5.8035523034798,16445.7361893903
"547","FP.wood.comb","Wishkah River",6995,191272,0,3.4572133495513,9841.72065666472
"548","FP.wood.comb","Hoquiam River",6151,171210,0,5.32331491297604,7573.7508575742
"549","FP.wood.comb","Humptulips River",25258,681004,0,5.83789688259445,30478.8636547984
"550","FP.wood.comb","Johns River",1418,37944,0,3.534738202907,1977.42660996459
"551","FP.wood.comb","Elk River",946,26159,0,4.16973369838743,1244.44778458243
"552","FP.wood.comb","Andrews",165,4403,0,3.34152631746429,235.466856925479
"553","FP.wood.comb","Upper Chehalis Estuary",152,4637,0,1.9523827274031,311.599702542342
"554","FP.wood.comb","Lower Chehalis Estuary",0,0,0,0,NA
"555","FP.wood.comb","Upper Skookumchuck",0,0,0,0,NA
"556","FP.wood.comb","Mainstem: Upper Chehalis 1",0,0,0,1.00319157188925,0
"557","FP.wood.comb","Mainstem: Upper Chehalis 2",0,8,0,1.88420940863708,0
"558","FP.wood.comb","Mainstem: Middle Chehalis 1",228,6100,0,1.6841486673813,561.260899086028
"559","FP.wood.comb","Mainstem: Middle Chehalis 2",0,0,0,0.647403928079479,NA
"560","FP.wood.comb","Mainstem: Middle Chehalis 3",0,0,0,0.327887506283421,NA
"561","FP.wood.comb","Mainstem: Lower Chehalis 1",0,0,0,0.990168347705947,NA
"562","FP.wood.comb","Mainstem: Lower Chehalis 2",730,19787,0,1.83317285124584,1606.16873126438
"563","FP.wood.comb","Mainstem: Lower Chehalis 3",660,17909,0,2.26340934163889,1182.39601073699
"564","FP.wood.comb","Mainstem: Lower Chehalis 4",1,30,0,1.38594629434374,3.59103407560991
"565","FP.wood.comb","Mainstem: Lower Chehalis 5",949,25764,0,3.9100026852644,1275.116537557
"566","FP.wood.comb","Mainstem: Lower Chehalis 6",90,2428,0,1.5121643932954,265.724828157062
"567","FP.wood.comb","Mainstem: Lower Chehalis 7",0,0,0,1.95460611193078,0
"568","Historical","Upper Chehalis: Above Proposed Dam",5976,147085,12010,9.24712472521736,6700.61617825751
"569","Historical","Upper Chehalis: Proposed Dam to Elk Creek",4517,112202,7396,9.25957984057275,5063.88011826117
"570","Historical","Elk Creek",7650,190380,12191,9.11493756494528,8592.70595907556
"571","Historical","Unnamed: Willapa Hills 3",579,14543,799,4.58594375057398,740.4637708434
"572","Historical","South Fork Chehalis",18539,449054,41849,8.35003114847927,21061.3022359348
"573","Historical","Unnamed: Willapa Hills 2",2113,52768,3168,8.79038453734507,2384.23179733566
"574","Historical","Unnamed: Willapa Hills 1",0,0,0,0,NA
"575","Historical","Unnamed: Willapa Hills 4",551,13758,829,6.34270106080635,654.131355044753
"576","Historical","Stearns Creek",4233,105260,6825,7.62896321420891,4871.56139538182
"577","Historical","Bunker Creek",2966,72195,6336,6.8996049948234,3468.74552323461
"578","Historical","Unnamed: Central Lowlands 9",1601,40913,2286,9.33715136228139,1793.03201794358
"579","Historical","Newaukum River",25814,630051,53459,8.20905012930927,29394.7768758675
"580","Historical","Dillenbaugh Creek",1726,42958,2753,7.18244441973803,2005.17760077059
"581","Historical","Unnamed: Central Lowlands 8",467,11873,489,4.50611522957593,600.195850513015
"582","Historical","Salzer Creek",1959,49350,2520,5.82415781938064,2365.08124222841
"583","Historical","Unnamed: Cascade Mountains 1",321,8109,394,3.75509119059024,437.511569960496
"584","Historical","Unnamed: Central Lowlands 7",567,14244,776,4.91164733905899,711.951717486986
"585","Historical","Skookumchuck River",39498,993448,52406,7.56806033452324,45511.6475592938
"586","Historical","Lincoln Creek",6476,162655,8811,7.48772369846768,7474.19294115894
"587","Historical","Unnamed: Central Lowlands 6",3519,88859,4327,8.43180636486071,3992.50534005281
"588","Historical","Unnamed: Black River 1",1159,29577,1119,4.45693480282935,1494.26811065439
"589","Historical","Scatter Creek",4568,115958,4999,6.36459317855139,5419.50911690073
"590","Historical","Black River",22814,576345,27735,7.76010680786423,26188.7987492535
"591","Historical","Unnamed: Central Lowlands 5",188,4636,333,6.09487690850973,224.899811982895
"592","Historical","Garrard Creek",3552,88049,6006,7.1638836763618,4128.2600637033
"593","Historical","Unnamed: Black Hills 5",528,13051,922,6.74684122033012,619.876559618898
"594","Historical","Unnamed: Central Lowlands 4",1479,37727,1445,5.45363977347525,1811.08792700491
"595","Historical","Rock Creek (Lower Chehalis)",2747,69395,3349,7.01944805440056,3203.35413333151
"596","Historical","Cedar Creek",4407,109414,7274,11.130005191946,4842.04419953347
"597","Historical","Unnamed: Black Hills 4",292,7342,385,7.03608703852085,340.375710644417
"598","Historical","Unnamed: Central Lowlands 3",224,5742,197,3.79038015505906,304.275800268247
"599","Historical","Porter Creek",2771,66321,7060,9.79425884048202,3086.09193102714
"600","Historical","Unnamed: Black Hills 3",54,1370,70,5.83470539382467,65.169243128852
"601","Historical","Mox Chehalis Creek",6085,150878,10250,9.18405378385154,6828.5190628887
"602","Historical","Unnamed: Black Hills 2",0,0,0,0,NA
"603","Historical","Unnamed: Central Lowlands 2",2953,72943,5246,6.40366845487676,3499.48060380813
"604","Historical","Cloquallum Creek",15779,387742,30282,9.49685389751114,17636.0402869493
"605","Historical","Unnamed: Black Hills 1",3900,98050,5216,6.87369044005698,4563.97779041998
"606","Historical","Unnamed: Central Lowlands 1",670,16749,985,10.0192349021679,744.285680245334
"607","Historical","Satsop River",64834,1624996,91713,10.2972147195368,71807.4863564848
"608","Historical","Unnamed: Olympic Mountains 1",985,25091,1003,5.42393289800619,1207.65256338855
"609","Historical","Wynoochee River",29423,779086,0,10.0767752246725,32664.5697504575
"610","Historical","Wishkah River",17725,469338,0,7.12794997312966,20617.4844487507
"611","Historical","Hoquiam River",14480,383411,0,9.78862063669226,16127.5850532843
"612","Historical","Humptulips River",41452,1101876,0,8.26502444994794,47157.6931171508
"613","Historical","Johns River",5282,139849,0,6.47381386871575,6246.95791173828
"614","Historical","Elk River",3513,93006,0,7.54411528334582,4049.81817142498
"615","Historical","Andrews",804,21288,0,7.80527043066594,922.143725248156
"616","Historical","Upper Chehalis Estuary",825,21844,0,5.02146556246382,1030.14908984936
"617","Historical","Lower Chehalis Estuary",0,0,0,0,NA
"618","Historical","Upper Skookumchuck",0,0,0,0,NA
"619","Historical","Mainstem: Upper Chehalis 1",0,0,0,2.20998938709464,0
"620","Historical","Mainstem: Upper Chehalis 2",6,147,0,3.92338550932043,8.05241490760306
"621","Historical","Mainstem: Middle Chehalis 1",651,17232,0,3.58255269523987,903.076173005072
"622","Historical","Mainstem: Middle Chehalis 2",0,0,0,1.39754030038726,0
"623","Historical","Mainstem: Middle Chehalis 3",0,0,0,0.778737256145869,NA
"624","Historical","Mainstem: Lower Chehalis 1",59,1552,0,2.27082998989607,105.426351651353
"625","Historical","Mainstem: Lower Chehalis 2",1851,49020,0,3.47168748560299,2599.8810825728
"626","Historical","Mainstem: Lower Chehalis 3",1337,35396,0,4.95832971462758,1674.76872984058
"627","Historical","Mainstem: Lower Chehalis 4",273,7224,0,2.39743683549177,468.357667027525
"628","Historical","Mainstem: Lower Chehalis 5",1473,38993,0,7.63718678256753,1694.93137668941
"629","Historical","Mainstem: Lower Chehalis 6",470,12446,0,2.91733825367991,715.131498888074
"630","Historical","Mainstem: Lower Chehalis 7",2,47,0,4.53530532981208,2.56572199949313
"631","ASRP.scenario.1.2040","Upper Chehalis: Above Proposed Dam",1243,28177,5127,2.40386566515135,2128.41235166257
"632","ASRP.scenario.1.2040","Upper Chehalis: Proposed Dam to Elk Creek",607,14455,2372,2.50535446313204,1010.2272895628
"633","ASRP.scenario.1.2040","Elk Creek",1671,39118,5362,2.75683987268671,2622.13961492949
"634","ASRP.scenario.1.2040","Unnamed: Willapa Hills 3",31,789,55,1.18237743359291,200.977169813655
"635","ASRP.scenario.1.2040","South Fork Chehalis",4725,113757,12821,3.09358866112234,6981.89032795344
"636","ASRP.scenario.1.2040","Unnamed: Willapa Hills 2",214,6056,690,2.65656528599957,343.182955726899
"637","ASRP.scenario.1.2040","Unnamed: Willapa Hills 1",0,0,0,0,NA
"638","ASRP.scenario.1.2040","Unnamed: Willapa Hills 4",19,734,70,1.5320242842682,54.7126555343887
"639","ASRP.scenario.1.2040","Stearns Creek",470,12005,1290,2.96596526960671,709.068312785619
"640","ASRP.scenario.1.2040","Bunker Creek",313,8083,885,1.85701623513084,678.220619131227
"641","ASRP.scenario.1.2040","Unnamed: Central Lowlands 9",9,284,28,1.13404411458938,76.1420750367899
"642","ASRP.scenario.1.2040","Newaukum River",7261,180948,16146,3.30824268426806,10406.6830988733
"643","ASRP.scenario.1.2040","Dillenbaugh Creek",64,2474,191,1.60483976333555,169.813149001738
"644","ASRP.scenario.1.2040","Unnamed: Central Lowlands 8",0,0,0,0.829091279567238,NA
"645","ASRP.scenario.1.2040","Salzer Creek",15,444,43,1.10765660953804,154.331900422698
"646","ASRP.scenario.1.2040","Unnamed: Cascade Mountains 1",0,0,0,0.184509991315894,NA
"647","ASRP.scenario.1.2040","Unnamed: Central Lowlands 7",0,0,0,0.22143831066384,NA
"648","ASRP.scenario.1.2040","Skookumchuck River",7085,184871,20132,2.97191094376039,10677.9614480911
"649","ASRP.scenario.1.2040","Lincoln Creek",1012,24445,3412,2.43923659269013,1715.15054879784
"650","ASRP.scenario.1.2040","Unnamed: Central Lowlands 6",1168,29114,3380,4.8731975097645,1469.55962794446
"651","ASRP.scenario.1.2040","Unnamed: Black River 1",274,7789,814,2.38742601843768,471.48800754691
"652","ASRP.scenario.1.2040","Scatter Creek",888,22529,2584,3.16510632245833,1298.14152089849
"653","ASRP.scenario.1.2040","Black River",7807,203070,15347,3.81821244940907,10577.1956967925
"654","ASRP.scenario.1.2040","Unnamed: Central Lowlands 5",0,36,3,0.735402347294908,NA
"655","ASRP.scenario.1.2040","Garrard Creek",428,10527,1289,2.18474170223938,789.260179489758
"656","ASRP.scenario.1.2040","Unnamed: Black Hills 5",149,3642,451,2.98119163449328,224.207262844167
"657","ASRP.scenario.1.2040","Unnamed: Central Lowlands 4",82,2012,161,3.05317040358764,121.938233990085
"658","ASRP.scenario.1.2040","Rock Creek (Lower Chehalis)",647,15327,1879,3.05424148909454,961.95810177857
"659","ASRP.scenario.1.2040","Cedar Creek",961,22084,3404,3.84767580281568,1298.46819039225
"660","ASRP.scenario.1.2040","Unnamed: Black Hills 4",34,796,110,2.06756223845482,65.8482602468325
"661","ASRP.scenario.1.2040","Unnamed: Central Lowlands 3",0,0,0,0.757320388979003,NA
"662","ASRP.scenario.1.2040","Porter Creek",462,10308,1967,2.8581884420528,710.629250696239
"663","ASRP.scenario.1.2040","Unnamed: Black Hills 3",0,0,0,0,NA
"664","ASRP.scenario.1.2040","Mox Chehalis Creek",2196,53229,6253,4.93055380796506,2754.69989505039
"665","ASRP.scenario.1.2040","Unnamed: Black Hills 2",0,0,0,0,NA
"666","ASRP.scenario.1.2040","Unnamed: Central Lowlands 2",280,7029,940,1.68962177724505,686.019660687869
"667","ASRP.scenario.1.2040","Cloquallum Creek",3862,97178,11001,3.40425986038167,5468.31555001169
"668","ASRP.scenario.1.2040","Unnamed: Black Hills 1",1096,30004,2524,2.81693445416857,1699.21383497652
"669","ASRP.scenario.1.2040","Unnamed: Central Lowlands 1",104,3386,341,2.5621960923594,170.572948497732
"670","ASRP.scenario.1.2040","Satsop River",25631,629616,57537,4.7352000308231,32493.0153642352
"671","ASRP.scenario.1.2040","Unnamed: Olympic Mountains 1",209,6365,465,2.06930887932487,404.453347522894
"672","ASRP.scenario.1.2040","Wynoochee River",7796,215572,0,4.54851340985047,9992.97633898149
"673","ASRP.scenario.1.2040","Wishkah River",4180,112773,0,2.58788823778102,6812.42708179595
"674","ASRP.scenario.1.2040","Hoquiam River",4485,124253,0,4.0882541813639,5937.27683234909
"675","ASRP.scenario.1.2040","Humptulips River",16265,437110,0,5.07179265331001,20259.5550731268
"676","ASRP.scenario.1.2040","Johns River",485,12971,0,2.00105892521215,969.486964538291
"677","ASRP.scenario.1.2040","Elk River",457,12536,0,2.51028583290538,759.591728031281
"678","ASRP.scenario.1.2040","Andrews",92,2437,0,2.26996776975782,164.442783345237
"679","ASRP.scenario.1.2040","Upper Chehalis Estuary",161,5293,0,2.06893509924233,311.617189120385
"680","ASRP.scenario.1.2040","Lower Chehalis Estuary",0,0,0,0,NA
"681","ASRP.scenario.1.2040","Upper Skookumchuck",0,0,0,0,NA
"682","ASRP.scenario.1.2040","Mainstem: Upper Chehalis 1",0,0,0,0.713314944029655,NA
"683","ASRP.scenario.1.2040","Mainstem: Upper Chehalis 2",0,0,0,1.28491455010085,0
"684","ASRP.scenario.1.2040","Mainstem: Middle Chehalis 1",0,0,0,0.543904770454205,NA
"685","ASRP.scenario.1.2040","Mainstem: Middle Chehalis 2",0,0,0,0.243016468639886,NA
"686","ASRP.scenario.1.2040","Mainstem: Middle Chehalis 3",0,0,0,0,NA
"687","ASRP.scenario.1.2040","Mainstem: Lower Chehalis 1",0,0,0,0.319149803176174,NA
"688","ASRP.scenario.1.2040","Mainstem: Lower Chehalis 2",9,248,0,1.06327861228432,151.228150635824
"689","ASRP.scenario.1.2040","Mainstem: Lower Chehalis 3",0,1,0,0.977167605042334,NA
"690","ASRP.scenario.1.2040","Mainstem: Lower Chehalis 4",0,0,0,0.857089845807832,NA
"691","ASRP.scenario.1.2040","Mainstem: Lower Chehalis 5",267,7253,0,2.1181941744395,505.777849235205
"692","ASRP.scenario.1.2040","Mainstem: Lower Chehalis 6",0,0,0,0.963095657631267,NA
"693","ASRP.scenario.1.2040","Mainstem: Lower Chehalis 7",0,0,0,1.20774904675094,0
"694","ASRP.scenario.1.2080","Upper Chehalis: Above Proposed Dam",1083,24768,4257,2.17639287658179,2003.6108108601
"695","ASRP.scenario.1.2080","Upper Chehalis: Proposed Dam to Elk Creek",511,12273,1914,2.22728261735754,927.367015040296
"696","ASRP.scenario.1.2080","Elk Creek",1494,35129,4633,2.52016070609952,2476.79082863111
"697","ASRP.scenario.1.2080","Unnamed: Willapa Hills 3",2,41,3,0.951168767635118,NA
"698","ASRP.scenario.1.2080","South Fork Chehalis",4089,98922,10665,2.82655427043352,6327.64139499644
"699","ASRP.scenario.1.2080","Unnamed: Willapa Hills 2",185,5258,576,2.41092322522529,316.119820478155
"700","ASRP.scenario.1.2080","Unnamed: Willapa Hills 1",0,0,0,0,NA
"701","ASRP.scenario.1.2080","Unnamed: Willapa Hills 4",12,465,43,1.2696542079618,56.5014379367663
"702","ASRP.scenario.1.2080","Stearns Creek",381,9845,1016,2.63912284731354,613.441394264282
"703","ASRP.scenario.1.2080","Bunker Creek",215,5620,587,1.57823382626734,586.821900126261
"704","ASRP.scenario.1.2080","Unnamed: Central Lowlands 9",3,87,8,0.956917387309153,NA
"705","ASRP.scenario.1.2080","Newaukum River",6350,159976,13632,3.00674942818714,9514.32132024399
"706","ASRP.scenario.1.2080","Dillenbaugh Creek",46,1771,137,1.43098637248028,152.731912972735
"707","ASRP.scenario.1.2080","Unnamed: Central Lowlands 8",0,0,0,0.711167309789371,NA
"708","ASRP.scenario.1.2080","Salzer Creek",1,30,3,0.946476872808705,NA
"709","ASRP.scenario.1.2080","Unnamed: Cascade Mountains 1",0,0,0,0.163802644956744,NA
"710","ASRP.scenario.1.2080","Unnamed: Central Lowlands 7",0,0,0,0.18077812886958,NA
"711","ASRP.scenario.1.2080","Skookumchuck River",6165,161959,16644,2.74418320052104,9699.60576742073
"712","ASRP.scenario.1.2080","Lincoln Creek",825,20198,2696,2.16064346470328,1535.81260101776
"713","ASRP.scenario.1.2080","Unnamed: Central Lowlands 6",1127,28212,3148,4.8432306036329,1420.24287721238
"714","ASRP.scenario.1.2080","Unnamed: Black River 1",263,7479,775,2.35965891639185,456.430864777417
"715","ASRP.scenario.1.2080","Scatter Creek",759,19388,2074,2.84192479657161,1171.06894082361
"716","ASRP.scenario.1.2080","Black River",6877,179821,13173,3.54714546434179,9576.88506595837
"717","ASRP.scenario.1.2080","Unnamed: Central Lowlands 5",0,33,3,0.726297678595559,NA
"718","ASRP.scenario.1.2080","Garrard Creek",336,8309,978,1.91460170851707,703.373029014769
"719","ASRP.scenario.1.2080","Unnamed: Black Hills 5",131,3215,385,2.73289394375413,206.596086230299
"720","ASRP.scenario.1.2080","Unnamed: Central Lowlands 4",82,2012,163,3.04553134165059,122.087383815802
"721","ASRP.scenario.1.2080","Rock Creek (Lower Chehalis)",554,13126,1605,2.69365584700521,881.103054011595
"722","ASRP.scenario.1.2080","Cedar Creek",851,19584,2990,3.40409960557681,1204.97867793245
"723","ASRP.scenario.1.2080","Unnamed: Black Hills 4",26,618,84,1.75035848943341,60.6501044049392
"724","ASRP.scenario.1.2080","Unnamed: Central Lowlands 3",0,0,0,0.638026426710631,NA
"725","ASRP.scenario.1.2080","Porter Creek",395,8894,1611,2.52079362641997,654.732808671648
"726","ASRP.scenario.1.2080","Unnamed: Black Hills 3",0,0,0,0,NA
"727","ASRP.scenario.1.2080","Mox Chehalis Creek",2126,51620,5967,4.82434488832068,2681.9122051185
"728","ASRP.scenario.1.2080","Unnamed: Black Hills 2",0,0,0,0,NA
"729","ASRP.scenario.1.2080","Unnamed: Central Lowlands 2",209,5268,677,1.49510172819698,631.135468525064
"730","ASRP.scenario.1.2080","Cloquallum Creek",3413,86374,9533,3.09558192391885,5041.66455424349
"731","ASRP.scenario.1.2080","Unnamed: Black Hills 1",1052,28787,2425,2.74877469018916,1653.56405848155
"732","ASRP.scenario.1.2080","Unnamed: Central Lowlands 1",94,3058,308,2.36825927187577,162.700429759291
"733","ASRP.scenario.1.2080","Satsop River",23598,580091,52660,4.41511225523415,30507.87535295
"734","ASRP.scenario.1.2080","Unnamed: Olympic Mountains 1",181,5536,398,1.88969087508564,384.441448112612
"735","ASRP.scenario.1.2080","Wynoochee River",7359,203534,0,4.25310441615047,9621.14687836802
"736","ASRP.scenario.1.2080","Wishkah River",3708,100439,0,2.34455648639169,6465.78670329497
"737","ASRP.scenario.1.2080","Hoquiam River",4053,112277,0,3.6822837333888,5564.02582830767
"738","ASRP.scenario.1.2080","Humptulips River",15027,404977,0,4.68508103022095,19104.7936432782
"739","ASRP.scenario.1.2080","Johns River",388,10392,0,1.75501648519606,901.896064003484
"740","ASRP.scenario.1.2080","Elk River",385,10565,0,2.21275391656214,702.459292229194
"741","ASRP.scenario.1.2080","Andrews",81,2144,0,2.05971985553413,157.435295212218
"742","ASRP.scenario.1.2080","Upper Chehalis Estuary",144,4764,0,1.93974006558546,297.233862504615
"743","ASRP.scenario.1.2080","Lower Chehalis Estuary",0,0,0,0,NA
"744","ASRP.scenario.1.2080","Upper Skookumchuck",0,0,0,0,NA
"745","ASRP.scenario.1.2080","Mainstem: Upper Chehalis 1",0,0,0,0.588514162957225,NA
"746","ASRP.scenario.1.2080","Mainstem: Upper Chehalis 2",0,0,0,1.07981784477906,0
"747","ASRP.scenario.1.2080","Mainstem: Middle Chehalis 1",0,0,0,0.407091686017962,NA
"748","ASRP.scenario.1.2080","Mainstem: Middle Chehalis 2",0,0,0,0.186472942400274,NA
"749","ASRP.scenario.1.2080","Mainstem: Middle Chehalis 3",0,0,0,0,NA
"750","ASRP.scenario.1.2080","Mainstem: Lower Chehalis 1",0,0,0,0.243944568550794,NA
"751","ASRP.scenario.1.2080","Mainstem: Lower Chehalis 2",0,0,0,0.864350984281494,NA
"752","ASRP.scenario.1.2080","Mainstem: Lower Chehalis 3",0,0,0,0.640865540237117,NA
"753","ASRP.scenario.1.2080","Mainstem: Lower Chehalis 4",0,0,0,0.674251785467418,NA
"754","ASRP.scenario.1.2080","Mainstem: Lower Chehalis 5",126,3410,0,1.62604473972437,327.263571123485
"755","ASRP.scenario.1.2080","Mainstem: Lower Chehalis 6",0,0,0,0.790863378168177,NA
"756","ASRP.scenario.1.2080","Mainstem: Lower Chehalis 7",0,0,0,1.02341116712698,0
"757","ASRP.scenario.2.2040","Upper Chehalis: Above Proposed Dam",1344,30644,5376,2.50458799847195,2237.26779248868
"758","ASRP.scenario.2.2040","Upper Chehalis: Proposed Dam to Elk Creek",608,14459,2379,2.50804033421549,1011.17224029442
"759","ASRP.scenario.2.2040","Elk Creek",1817,42815,5532,2.85143521516219,2798.40079929333
"760","ASRP.scenario.2.2040","Unnamed: Willapa Hills 3",31,791,55,1.18326824365353,200.15096353848
"761","ASRP.scenario.2.2040","South Fork Chehalis",4813,115768,13147,3.13020815497662,7072.40361215677
"762","ASRP.scenario.2.2040","Unnamed: Willapa Hills 2",215,6059,697,2.6595830563599,344.550611628669
"763","ASRP.scenario.2.2040","Unnamed: Willapa Hills 1",0,0,0,0,NA
"764","ASRP.scenario.2.2040","Unnamed: Willapa Hills 4",19,735,70,1.53388965898163,54.5878779076592
"765","ASRP.scenario.2.2040","Stearns Creek",471,12010,1301,2.96956246782951,710.139406692213
"766","ASRP.scenario.2.2040","Bunker Creek",313,8092,894,1.85941540692438,677.201057460845
"767","ASRP.scenario.2.2040","Unnamed: Central Lowlands 9",9,285,29,1.13553825812133,75.4019157745375
"768","ASRP.scenario.2.2040","Newaukum River",7271,181025,16349,3.31185215049618,10416.0973188054
"769","ASRP.scenario.2.2040","Dillenbaugh Creek",64,2477,194,1.60689394805964,169.45499787009
"770","ASRP.scenario.2.2040","Unnamed: Central Lowlands 8",0,0,0,0.830450839413665,NA
"771","ASRP.scenario.2.2040","Salzer Creek",16,447,44,1.10938906575312,162.266904190504
"772","ASRP.scenario.2.2040","Unnamed: Cascade Mountains 1",0,0,0,0.184834566690783,NA
"773","ASRP.scenario.2.2040","Unnamed: Central Lowlands 7",0,0,0,0.221858733077836,NA
"774","ASRP.scenario.2.2040","Skookumchuck River",7099,184993,20414,2.97654701318356,10690.6170739424
"775","ASRP.scenario.2.2040","Lincoln Creek",2191,53789,4982,3.41087854937515,3099.79733471761
"776","ASRP.scenario.2.2040","Unnamed: Central Lowlands 6",1174,29145,3522,4.88982951164545,1475.81271350974
"777","ASRP.scenario.2.2040","Unnamed: Black River 1",275,7793,820,2.39160107114495,472.614104862496
"778","ASRP.scenario.2.2040","Scatter Creek",1444,36636,3767,3.604200618429,1998.48877086555
"779","ASRP.scenario.2.2040","Black River",8002,208308,15552,3.84904944627508,10810.6560626254
"780","ASRP.scenario.2.2040","Unnamed: Central Lowlands 5",0,35,3,0.735407790254464,NA
"781","ASRP.scenario.2.2040","Garrard Creek",427,10520,1278,2.18475807322239,787.411133421201
"782","ASRP.scenario.2.2040","Unnamed: Black Hills 5",149,3641,447,2.98121334370245,224.206438758156
"783","ASRP.scenario.2.2040","Unnamed: Central Lowlands 4",82,2012,160,3.05319023998441,121.937848136577
"784","ASRP.scenario.2.2040","Rock Creek (Lower Chehalis)",646,15319,1859,3.05548234527303,960.281463660147
"785","ASRP.scenario.2.2040","Cedar Creek",1600,38073,4377,4.84206102306211,2016.44315131799
"786","ASRP.scenario.2.2040","Unnamed: Black Hills 4",34,795,108,2.06877682473409,65.8120670407118
"787","ASRP.scenario.2.2040","Unnamed: Central Lowlands 3",0,0,0,0.757716367789556,NA
"788","ASRP.scenario.2.2040","Porter Creek",685,15310,2897,3.77853621053196,931.532687752467
"789","ASRP.scenario.2.2040","Unnamed: Black Hills 3",0,0,0,0,NA
"790","ASRP.scenario.2.2040","Mox Chehalis Creek",2189,53194,6090,4.93056121952265,2745.91792539129
"791","ASRP.scenario.2.2040","Unnamed: Black Hills 2",0,0,0,0,NA
"792","ASRP.scenario.2.2040","Unnamed: Central Lowlands 2",278,7000,914,1.6896249281891,681.117678373384
"793","ASRP.scenario.2.2040","Cloquallum Creek",4882,119744,12890,3.59871311259232,6760.6221443005
"794","ASRP.scenario.2.2040","Unnamed: Black Hills 1",1093,29975,2464,2.81693855284195,1694.56134520366
"795","ASRP.scenario.2.2040","Unnamed: Central Lowlands 1",104,3384,337,2.56220360570305,170.572628318314
"796","ASRP.scenario.2.2040","Satsop River",26651,656668,57560,4.77978187065598,33701.9359830796
"797","ASRP.scenario.2.2040","Unnamed: Olympic Mountains 1",209,6361,460,2.0693133880655,404.452523397377
"798","ASRP.scenario.2.2040","Wynoochee River",8191,226297,0,4.67601272428196,10419.2295014634
"799","ASRP.scenario.2.2040","Wishkah River",3980,107365,0,2.55364838499565,6541.71218561215
"800","ASRP.scenario.2.2040","Hoquiam River",4485,124253,0,4.0882541813639,5937.27683234909
"801","ASRP.scenario.2.2040","Humptulips River",17042,457310,0,5.19412135901602,21105.3063617401
"802","ASRP.scenario.2.2040","Johns River",805,21547,0,2.43310634654695,1366.71686207352
"803","ASRP.scenario.2.2040","Elk River",457,12536,0,2.51028583290538,759.591728031281
"804","ASRP.scenario.2.2040","Andrews",92,2437,0,2.26996776975782,164.442783345237
"805","ASRP.scenario.2.2040","Upper Chehalis Estuary",161,5293,0,2.06893509924233,311.617189120385
"806","ASRP.scenario.2.2040","Lower Chehalis Estuary",0,0,0,0,NA
"807","ASRP.scenario.2.2040","Upper Skookumchuck",0,0,0,0,NA
"808","ASRP.scenario.2.2040","Mainstem: Upper Chehalis 1",0,0,0,0.713315899779478,NA
"809","ASRP.scenario.2.2040","Mainstem: Upper Chehalis 2",0,0,0,1.28492436646422,0
"810","ASRP.scenario.2.2040","Mainstem: Middle Chehalis 1",0,0,0,0.54390700927018,NA
"811","ASRP.scenario.2.2040","Mainstem: Middle Chehalis 2",0,0,0,0.243016713452077,NA
"812","ASRP.scenario.2.2040","Mainstem: Middle Chehalis 3",0,0,0,0,NA
"813","ASRP.scenario.2.2040","Mainstem: Lower Chehalis 1",0,0,0,0.319150176838063,NA
"814","ASRP.scenario.2.2040","Mainstem: Lower Chehalis 2",2,55,0,1.06324957437907,33.6207661416586
"815","ASRP.scenario.2.2040","Mainstem: Lower Chehalis 3",4,117,0,1.12322824264446,36.460091243375
"816","ASRP.scenario.2.2040","Mainstem: Lower Chehalis 4",0,0,0,0.85710493148757,NA
"817","ASRP.scenario.2.2040","Mainstem: Lower Chehalis 5",252,6848,0,2.16371068780062,468.548668532274
"818","ASRP.scenario.2.2040","Mainstem: Lower Chehalis 6",0,0,0,0.963080555200689,NA
"819","ASRP.scenario.2.2040","Mainstem: Lower Chehalis 7",0,0,0,1.20778140550916,0
"820","ASRP.scenario.2.2080","Upper Chehalis: Above Proposed Dam",1178,27086,4487,2.26742667809542,2107.44232621819
"821","ASRP.scenario.2.2080","Upper Chehalis: Proposed Dam to Elk Creek",512,12277,1920,2.22967251224031,928.371021474
"822","ASRP.scenario.2.2080","Elk Creek",1635,38693,4818,2.61624249842262,2646.60562328715
"823","ASRP.scenario.2.2080","Unnamed: Willapa Hills 3",2,42,3,0.951885758502737,NA
"824","ASRP.scenario.2.2080","South Fork Chehalis",4173,100862,10962,2.86138851045365,6414.87480290344
"825","ASRP.scenario.2.2080","Unnamed: Willapa Hills 2",186,5261,582,2.41366428659863,317.57296379576
"826","ASRP.scenario.2.2080","Unnamed: Willapa Hills 1",0,0,0,0,NA
"827","ASRP.scenario.2.2080","Unnamed: Willapa Hills 4",12,465,44,1.27119616620891,56.24841312379
"828","ASRP.scenario.2.2080","Stearns Creek",382,9850,1026,2.64232777553342,614.596687269645
"829","ASRP.scenario.2.2080","Bunker Creek",215,5629,594,1.58027442227632,585.514349325599
"830","ASRP.scenario.2.2080","Unnamed: Central Lowlands 9",3,88,9,0.95817558600242,NA
"831","ASRP.scenario.2.2080","Newaukum River",6360,160054,13812,3.01003071673439,9524.13075036625
"832","ASRP.scenario.2.2080","Dillenbaugh Creek",46,1774,139,1.4328180845435,152.280217122898
"833","ASRP.scenario.2.2080","Unnamed: Central Lowlands 8",0,0,0,0.712330498978436,NA
"834","ASRP.scenario.2.2080","Salzer Creek",1,31,3,0.947955907715579,NA
"835","ASRP.scenario.2.2080","Unnamed: Cascade Mountains 1",0,0,0,0.164087534179081,NA
"836","ASRP.scenario.2.2080","Unnamed: Central Lowlands 7",0,0,0,0.181119370524731,NA
"837","ASRP.scenario.2.2080","Skookumchuck River",6178,162082,16894,2.74846705204908,9711.38085082006
"838","ASRP.scenario.2.2080","Lincoln Creek",1867,46437,4006,3.058111170702,2774.14244525634
"839","ASRP.scenario.2.2080","Unnamed: Central Lowlands 6",1133,28238,3268,4.85777917764846,1426.69228974133
"840","ASRP.scenario.2.2080","Unnamed: Black River 1",263,7482,780,2.36379251634117,455.844583650881
"841","ASRP.scenario.2.2080","Scatter Creek",1267,32409,3026,3.29305620718117,1819.53769882837
"842","ASRP.scenario.2.2080","Black River",7062,184801,13382,3.57478492585459,9804.75335741142
"843","ASRP.scenario.2.2080","Unnamed: Central Lowlands 5",0,32,3,0.726302546565552,NA
"844","ASRP.scenario.2.2080","Garrard Creek",336,8302,970,1.91461471149215,703.367806113499
"845","ASRP.scenario.2.2080","Unnamed: Black Hills 5",131,3214,382,2.73291196141391,206.595300232745
"846","ASRP.scenario.2.2080","Unnamed: Central Lowlands 4",82,2012,162,3.04554929464176,122.087031984414
"847","ASRP.scenario.2.2080","Rock Creek (Lower Chehalis)",553,13118,1589,2.6952100704023,879.213257964403
"848","ASRP.scenario.2.2080","Cedar Creek",1437,34233,3887,4.30379900795862,1871.95382029547
"849","ASRP.scenario.2.2080","Unnamed: Black Hills 4",26,618,83,1.75188105165184,60.5799378011713
"850","ASRP.scenario.2.2080","Unnamed: Central Lowlands 3",0,0,0,0.638522848931394,NA
"851","ASRP.scenario.2.2080","Porter Creek",604,13643,2411,3.33419035445145,862.762100892129
"852","ASRP.scenario.2.2080","Unnamed: Black Hills 3",0,0,0,0,NA
"853","ASRP.scenario.2.2080","Mox Chehalis Creek",2120,51590,5833,4.82435091489369,2674.34243540356
"854","ASRP.scenario.2.2080","Unnamed: Black Hills 2",0,0,0,0,NA
"855","ASRP.scenario.2.2080","Unnamed: Central Lowlands 2",208,5242,659,1.49510394004233,628.113804754239
"856","ASRP.scenario.2.2080","Cloquallum Creek",4337,106998,11183,3.27331258194551,6244.78867562875
"857","ASRP.scenario.2.2080","Unnamed: Black Hills 1",1050,28762,2375,2.7487780113068,1650.41926031273
"858","ASRP.scenario.2.2080","Unnamed: Central Lowlands 1",94,3057,305,2.36826519272544,162.700132474146
"859","ASRP.scenario.2.2080","Satsop River",24555,605428,52714,4.45831099536652,31655.2868258231
"860","ASRP.scenario.2.2080","Unnamed: Olympic Mountains 1",181,5532,394,1.88969438518269,384.440645478316
"861","ASRP.scenario.2.2080","Wynoochee River",7746,214071,0,4.37906336412988,10038.3512125363
"862","ASRP.scenario.2.2080","Wishkah River",3527,95555,0,2.3135616018641,6212.06630750683
"863","ASRP.scenario.2.2080","Hoquiam River",4053,112277,0,3.6822837333888,5564.02582830767
"864","ASRP.scenario.2.2080","Humptulips River",15763,424110,0,4.79881474257993,19912.4521497236
"865","ASRP.scenario.2.2080","Johns River",680,18219,0,2.1419099576252,1275.49353734876
"866","ASRP.scenario.2.2080","Elk River",385,10565,0,2.21275391656214,702.459292229194
"867","ASRP.scenario.2.2080","Andrews",81,2144,0,2.05971985553413,157.435295212218
"868","ASRP.scenario.2.2080","Upper Chehalis Estuary",144,4764,0,1.93974006558546,297.233862504615
"869","ASRP.scenario.2.2080","Lower Chehalis Estuary",0,0,0,0,NA
"870","ASRP.scenario.2.2080","Upper Skookumchuck",0,0,0,0,NA
"871","ASRP.scenario.2.2080","Mainstem: Upper Chehalis 1",0,0,0,0.588514883681403,NA
"872","ASRP.scenario.2.2080","Mainstem: Upper Chehalis 2",0,0,0,1.07982466314363,0
"873","ASRP.scenario.2.2080","Mainstem: Middle Chehalis 1",0,0,0,0.407093118660923,NA
"874","ASRP.scenario.2.2080","Mainstem: Middle Chehalis 2",0,0,0,0.186473035762414,NA
"875","ASRP.scenario.2.2080","Mainstem: Middle Chehalis 3",0,0,0,0,NA
"876","ASRP.scenario.2.2080","Mainstem: Lower Chehalis 1",0,0,0,0.243944804711787,NA
"877","ASRP.scenario.2.2080","Mainstem: Lower Chehalis 2",0,0,0,0.864312692475609,NA
"878","ASRP.scenario.2.2080","Mainstem: Lower Chehalis 3",0,0,0,0.739301564537282,NA
"879","ASRP.scenario.2.2080","Mainstem: Lower Chehalis 4",0,0,0,0.67426177708403,NA
"880","ASRP.scenario.2.2080","Mainstem: Lower Chehalis 5",117,3176,0,1.68350904180107,288.175497096134
"881","ASRP.scenario.2.2080","Mainstem: Lower Chehalis 6",0,0,0,0.790847154766734,NA
"882","ASRP.scenario.2.2080","Mainstem: Lower Chehalis 7",0,0,0,1.02343501501112,0
"883","ASRP.scenario.3.2040","Upper Chehalis: Above Proposed Dam",1572,35629,6489,2.72608347091964,2482.73231769171
"884","ASRP.scenario.3.2040","Upper Chehalis: Proposed Dam to Elk Creek",620,14571,2613,2.53484361842114,1023.94994809815
"885","ASRP.scenario.3.2040","Elk Creek",1850,43078,6152,2.87633322096793,2835.96559466429
"886","ASRP.scenario.3.2040","Unnamed: Willapa Hills 3",68,1680,157,1.41266269391066,232.78349267676
"887","ASRP.scenario.3.2040","South Fork Chehalis",6555,158559,16978,3.38606547863067,9302.20038435904
"888","ASRP.scenario.3.2040","Unnamed: Willapa Hills 2",240,6534,941,2.80470322261375,372.985854401262
"889","ASRP.scenario.3.2040","Unnamed: Willapa Hills 1",0,0,0,0,NA
"890","ASRP.scenario.3.2040","Unnamed: Willapa Hills 4",55,1661,201,2.59939277841568,89.3880507291534
"891","ASRP.scenario.3.2040","Stearns Creek",1072,27684,1686,3.90275860514147,1441.30387463196
"892","ASRP.scenario.3.2040","Bunker Creek",327,8279,1107,1.89440902030787,692.604541742482
"893","ASRP.scenario.3.2040","Unnamed: Central Lowlands 9",147,4434,268,3.35865544421394,209.323643057153
"894","ASRP.scenario.3.2040","Newaukum River",7562,183122,22139,3.36344852843422,10761.561957463
"895","ASRP.scenario.3.2040","Dillenbaugh Creek",82,3004,297,1.77426138848963,187.907386341399
"896","ASRP.scenario.3.2040","Unnamed: Central Lowlands 8",0,0,0,0.857762356459605,NA
"897","ASRP.scenario.3.2040","Salzer Creek",19,521,64,1.13944493179705,155.25450387579
"898","ASRP.scenario.3.2040","Unnamed: Cascade Mountains 1",2,76,9,0.663437283082282,NA
"899","ASRP.scenario.3.2040","Unnamed: Central Lowlands 7",0,0,0,0.223221492508195,NA
"900","ASRP.scenario.3.2040","Skookumchuck River",11770,316222,15796,3.39690633028555,16680.4964392154
"901","ASRP.scenario.3.2040","Lincoln Creek",2200,53848,5151,3.41592157965464,3110.62558426027
"902","ASRP.scenario.3.2040","Unnamed: Central Lowlands 6",1179,29169,3633,4.90206060200957,1481.14804951845
"903","ASRP.scenario.3.2040","Unnamed: Black River 1",282,7965,869,2.42938381022008,479.28780890318
"904","ASRP.scenario.3.2040","Scatter Creek",1451,36679,3901,3.61287231880654,2006.32755640458
"905","ASRP.scenario.3.2040","Black River",9039,232034,18452,4.26084890536178,11810.9775623879
"906","ASRP.scenario.3.2040","Unnamed: Central Lowlands 5",0,37,3,0.737617596361594,NA
"907","ASRP.scenario.3.2040","Garrard Creek",1123,27495,2447,3.18623880092945,1636.66758266415
"908","ASRP.scenario.3.2040","Unnamed: Black Hills 5",150,3645,459,2.99024504971103,225.367603613323
"909","ASRP.scenario.3.2040","Unnamed: Central Lowlands 4",82,2014,165,3.06053761132281,121.795439573344
"910","ASRP.scenario.3.2040","Rock Creek (Lower Chehalis)",650,15349,1933,3.06810250390644,964.297767529517
"911","ASRP.scenario.3.2040","Cedar Creek",1328,30767,4468,4.63365006292057,1693.47272769921
"912","ASRP.scenario.3.2040","Unnamed: Black Hills 4",34,798,113,2.08010878318588,65.4783108232062
"913","ASRP.scenario.3.2040","Unnamed: Central Lowlands 3",0,0,0,0.761390466354382,NA
"914","ASRP.scenario.3.2040","Porter Creek",694,15361,3091,3.78991085315313,942.753467952443
"915","ASRP.scenario.3.2040","Unnamed: Black Hills 3",0,0,0,0,NA
"916","ASRP.scenario.3.2040","Mox Chehalis Creek",2203,53264,6414,4.94048266422203,2762.06856791995
"917","ASRP.scenario.3.2040","Unnamed: Black Hills 2",0,0,0,0,NA
"918","ASRP.scenario.3.2040","Unnamed: Central Lowlands 2",282,7057,966,1.6947583712533,687.896512612423
"919","ASRP.scenario.3.2040","Cloquallum Creek",4919,119993,13647,3.60652828640434,6806.18458405287
"920","ASRP.scenario.3.2040","Unnamed: Black Hills 1",1099,30033,2582,2.82243157786428,1702.04047260195
"921","ASRP.scenario.3.2040","Unnamed: Central Lowlands 1",103,3374,319,2.54518876271692,169.658522560631
"922","ASRP.scenario.3.2040","Satsop River",26987,668998,53961,4.80287540847167,34083.4723009018
"923","ASRP.scenario.3.2040","Unnamed: Olympic Mountains 1",0,0,0,0.545230232857997,NA
"924","ASRP.scenario.3.2040","Wynoochee River",8798,235658,0,5.1343669518346,10926.0162362211
"925","ASRP.scenario.3.2040","Wishkah River",4352,117410,0,2.6165185522933,7044.20541504208
"926","ASRP.scenario.3.2040","Hoquiam River",4485,124253,0,4.0882541813639,5937.27683234909
"927","ASRP.scenario.3.2040","Humptulips River",17994,482859,0,5.23707185587623,22240.8007652608
"928","ASRP.scenario.3.2040","Johns River",891,23851,0,2.52500699930722,1475.25961349998
"929","ASRP.scenario.3.2040","Elk River",457,12536,0,2.51028583290538,759.591728031281
"930","ASRP.scenario.3.2040","Andrews",92,2437,0,2.26996776975782,164.442783345237
"931","ASRP.scenario.3.2040","Upper Chehalis Estuary",11,402,0,1.04172461449965,274.633352444583
"932","ASRP.scenario.3.2040","Lower Chehalis Estuary",0,0,0,0,NA
"933","ASRP.scenario.3.2040","Upper Skookumchuck",0,0,0,0,NA
"934","ASRP.scenario.3.2040","Mainstem: Upper Chehalis 1",0,0,0,0.713308655580453,NA
"935","ASRP.scenario.3.2040","Mainstem: Upper Chehalis 2",0,0,0,1.29011816212698,0
"936","ASRP.scenario.3.2040","Mainstem: Middle Chehalis 1",1,17,0,0.963032683084515,NA
"937","ASRP.scenario.3.2040","Mainstem: Middle Chehalis 2",0,0,0,0.402726673486382,NA
"938","ASRP.scenario.3.2040","Mainstem: Middle Chehalis 3",0,0,0,0.211905797052102,NA
"939","ASRP.scenario.3.2040","Mainstem: Lower Chehalis 1",0,0,0,0.407389548137251,NA
"940","ASRP.scenario.3.2040","Mainstem: Lower Chehalis 2",14,363,0,1.11653660025215,134.133931912445
"941","ASRP.scenario.3.2040","Mainstem: Lower Chehalis 3",42,1130,0,1.23412783820551,221.389176109567
"942","ASRP.scenario.3.2040","Mainstem: Lower Chehalis 4",0,0,0,0.912805909982043,NA
"943","ASRP.scenario.3.2040","Mainstem: Lower Chehalis 5",346,9400,0,2.40731873990641,591.857594437354
"944","ASRP.scenario.3.2040","Mainstem: Lower Chehalis 6",0,0,0,1.04732190551639,0
"945","ASRP.scenario.3.2040","Mainstem: Lower Chehalis 7",0,0,0,0.962874948035084,NA
"946","ASRP.scenario.3.2080","Upper Chehalis: Above Proposed Dam",1393,31835,5485,2.46795872226373,2341.93676427894
"947","ASRP.scenario.3.2080","Upper Chehalis: Proposed Dam to Elk Creek",523,12393,2119,2.25353749022483,940.21927272091
"948","ASRP.scenario.3.2080","Elk Creek",1666,38961,5370,2.63906335358476,2682.43417037928
"949","ASRP.scenario.3.2080","Unnamed: Willapa Hills 3",29,709,63,1.15999119933128,210.259970055933
"950","ASRP.scenario.3.2080","South Fork Chehalis",5727,139462,13977,3.11714228910349,8432.06145452563
"951","ASRP.scenario.3.2080","Unnamed: Willapa Hills 2",208,5695,781,2.5419773310922,342.891736607224
"952","ASRP.scenario.3.2080","Unnamed: Willapa Hills 1",0,0,0,0,NA
"953","ASRP.scenario.3.2080","Unnamed: Willapa Hills 4",42,1257,145,2.1760185054148,77.7137237268098
"954","ASRP.scenario.3.2080","Stearns Creek",863,22601,1240,3.44831489365229,1215.48733822495
"955","ASRP.scenario.3.2080","Bunker Creek",226,5804,733,1.60767787343372,597.907567940515
"956","ASRP.scenario.3.2080","Unnamed: Central Lowlands 9",144,4329,250,3.35716266592619,205.090395703946
"957","ASRP.scenario.3.2080","Newaukum River",6594,161948,18325,3.05175326602241,9807.83672647117
"958","ASRP.scenario.3.2080","Dillenbaugh Creek",61,2244,219,1.57961019721654,166.243144949727
"959","ASRP.scenario.3.2080","Unnamed: Central Lowlands 8",0,0,0,0.733691579769181,NA
"960","ASRP.scenario.3.2080","Salzer Creek",2,54,6,0.971569327596298,NA
"961","ASRP.scenario.3.2080","Unnamed: Cascade Mountains 1",2,54,6,0.570364893638236,NA
"962","ASRP.scenario.3.2080","Unnamed: Central Lowlands 7",0,0,0,0.181677500734075,NA
"963","ASRP.scenario.3.2080","Skookumchuck River",10135,274332,12212,3.11721774815753,14921.9426792874
"964","ASRP.scenario.3.2080","Lincoln Creek",1871,46472,4090,3.06013906520524,2779.1911175805
"965","ASRP.scenario.3.2080","Unnamed: Central Lowlands 6",1139,28268,3408,4.86930675157523,1433.36797677938
"966","ASRP.scenario.3.2080","Unnamed: Black River 1",271,7650,823,2.40086644147241,464.45170387204
"967","ASRP.scenario.3.2080","Scatter Creek",1275,32471,3194,3.30075696078029,1829.16544282347
"968","ASRP.scenario.3.2080","Black River",7991,206216,15820,3.95569899355041,10694.5905947923
"969","ASRP.scenario.3.2080","Unnamed: Central Lowlands 5",0,34,3,0.728251777368415,NA
"970","ASRP.scenario.3.2080","Garrard Creek",963,23688,1984,2.87102739799749,1477.69048557529
"971","ASRP.scenario.3.2080","Unnamed: Black Hills 5",132,3218,392,2.74042230348777,207.843661469676
"972","ASRP.scenario.3.2080","Unnamed: Central Lowlands 4",82,2013,167,3.05223039587282,121.956527378655
"973","ASRP.scenario.3.2080","Rock Creek (Lower Chehalis)",556,13147,1649,2.7056569519069,881.974105976234
"974","ASRP.scenario.3.2080","Cedar Creek",1193,27703,3954,4.11909271578308,1575.48301948937
"975","ASRP.scenario.3.2080","Unnamed: Black Hills 4",27,620,86,1.76099136050148,62.4800348616408
"976","ASRP.scenario.3.2080","Unnamed: Central Lowlands 3",0,0,0,0.641473815159881,NA
"977","ASRP.scenario.3.2080","Porter Creek",612,13691,2563,3.34374858300297,873.120157869435
"978","ASRP.scenario.3.2080","Unnamed: Black Hills 3",0,0,0,0,NA
"979","ASRP.scenario.3.2080","Mox Chehalis Creek",2133,51654,6118,4.83300993574335,2689.48172996096
"980","ASRP.scenario.3.2080","Unnamed: Black Hills 2",0,0,0,0,NA
"981","ASRP.scenario.3.2080","Unnamed: Central Lowlands 2",211,5297,696,1.49942658949231,633.484514119463
"982","ASRP.scenario.3.2080","Cloquallum Creek",4368,107229,11797,3.27993196759762,6283.84664019716
"983","ASRP.scenario.3.2080","Unnamed: Black Hills 1",1055,28815,2480,2.75356737406101,1656.63071895936
"984","ASRP.scenario.3.2080","Unnamed: Central Lowlands 1",93,3046,287,2.351678055789,161.8033660099
"985","ASRP.scenario.3.2080","Satsop River",24854,616918,49006,4.47829392899651,31999.4570853851
"986","ASRP.scenario.3.2080","Unnamed: Olympic Mountains 1",0,0,0,0.49130621088653,NA
"987","ASRP.scenario.3.2080","Wynoochee River",8342,223502,0,4.81319283918463,10529.6680125581
"988","ASRP.scenario.3.2080","Wishkah River",3862,104613,0,2.36986348352324,6681.25903307319
"989","ASRP.scenario.3.2080","Hoquiam River",4053,112277,0,3.6822837333888,5564.02582830767
"990","ASRP.scenario.3.2080","Humptulips River",16686,448991,0,4.85311608551576,21016.5209678796
"991","ASRP.scenario.3.2080","Johns River",757,20284,0,2.22529496852029,1374.81042071378
"992","ASRP.scenario.3.2080","Elk River",385,10565,0,2.21275391656214,702.459292229194
"993","ASRP.scenario.3.2080","Andrews",81,2144,0,2.05971985553413,157.435295212218
"994","ASRP.scenario.3.2080","Upper Chehalis Estuary",3,95,0,0.960544639244082,NA
"995","ASRP.scenario.3.2080","Lower Chehalis Estuary",0,0,0,0,NA
"996","ASRP.scenario.3.2080","Upper Skookumchuck",0,0,0,0,NA
"997","ASRP.scenario.3.2080","Mainstem: Upper Chehalis 1",0,0,0,0.588509114509882,NA
"998","ASRP.scenario.3.2080","Mainstem: Upper Chehalis 2",0,0,0,1.08349387059597,0
"999","ASRP.scenario.3.2080","Mainstem: Middle Chehalis 1",0,0,0,0.746694181636618,NA
"1000","ASRP.scenario.3.2080","Mainstem: Middle Chehalis 2",0,0,0,0.300949008150828,NA
"1001","ASRP.scenario.3.2080","Mainstem: Middle Chehalis 3",0,0,0,0.165764899656091,NA
"1002","ASRP.scenario.3.2080","Mainstem: Lower Chehalis 1",0,0,0,0.255052938277237,NA
"1003","ASRP.scenario.3.2080","Mainstem: Lower Chehalis 2",0,0,0,0.858756128255693,NA
"1004","ASRP.scenario.3.2080","Mainstem: Lower Chehalis 3",0,0,0,0.834456831943992,NA
"1005","ASRP.scenario.3.2080","Mainstem: Lower Chehalis 4",0,0,0,0.712718507905354,NA
"1006","ASRP.scenario.3.2080","Mainstem: Lower Chehalis 5",190,5159,0,1.87244931908075,407.77769303573
"1007","ASRP.scenario.3.2080","Mainstem: Lower Chehalis 6",0,0,0,0.860564202440621,NA
"1008","ASRP.scenario.3.2080","Mainstem: Lower Chehalis 7",0,0,0,0.783518984825842,NA
"1009","ASRP.dev.and.climate.2040","Upper Chehalis: Above Proposed Dam",807,18430,3209,2.02273539049741,1596.06040359815
"1010","ASRP.dev.and.climate.2040","Upper Chehalis: Proposed Dam to Elk Creek",586,14174,2079,2.45223983374266,989.514616790109
"1011","ASRP.dev.and.climate.2040","Elk Creek",1259,29573,3927,2.60774166949883,2042.08600435321
"1012","ASRP.dev.and.climate.2040","Unnamed: Willapa Hills 3",45,1101,101,1.3817159904753,162.88869505825
"1013","ASRP.dev.and.climate.2040","South Fork Chehalis",4151,100453,10981,2.82687191645931,6423.18994533843
"1014","ASRP.dev.and.climate.2040","Unnamed: Willapa Hills 2",213,6041,663,2.64422738741579,342.544126092419
"1015","ASRP.dev.and.climate.2040","Unnamed: Willapa Hills 1",0,0,0,0,NA
"1016","ASRP.dev.and.climate.2040","Unnamed: Willapa Hills 4",18,731,67,1.52474195054091,52.3025747826056
"1017","ASRP.dev.and.climate.2040","Stearns Creek",468,11986,1247,2.95192183014221,707.763699945864
"1018","ASRP.dev.and.climate.2040","Bunker Creek",310,8051,851,1.84764989512557,675.717027492911
"1019","ASRP.dev.and.climate.2040","Unnamed: Central Lowlands 9",9,281,27,1.12821103861376,79.1967638458406
"1020","ASRP.dev.and.climate.2040","Newaukum River",4526,109214,13927,2.64429249419429,7278.55163906697
"1021","ASRP.dev.and.climate.2040","Dillenbaugh Creek",64,2464,183,1.5968200237733,171.235007959971
"1022","ASRP.dev.and.climate.2040","Unnamed: Central Lowlands 8",0,0,0,0.823783437146544,NA
"1023","ASRP.dev.and.climate.2040","Salzer Creek",15,433,40,1.10089293704276,163.672448633766
"1024","ASRP.dev.and.climate.2040","Unnamed: Cascade Mountains 1",0,0,0,0.183242826153207,NA
"1025","ASRP.dev.and.climate.2040","Unnamed: Central Lowlands 7",0,0,0,0.218598222053131,NA
"1026","ASRP.dev.and.climate.2040","Skookumchuck River",5467,144717,14343,2.60507161180463,8873.07855736311
"1027","ASRP.dev.and.climate.2040","Lincoln Creek",1004,24369,3272,2.42675710397031,1707.693710167
"1028","ASRP.dev.and.climate.2040","Unnamed: Central Lowlands 6",1158,29065,3153,4.84388174237492,1459.2579672351
"1029","ASRP.dev.and.climate.2040","Unnamed: Black River 1",263,7522,745,2.32484500178305,461.513788138266
"1030","ASRP.dev.and.climate.2040","Scatter Creek",879,22453,2389,3.14424894629723,1288.93374464187
"1031","ASRP.dev.and.climate.2040","Black River",4697,124625,11624,3.2921939101683,6746.12855721493
"1032","ASRP.dev.and.climate.2040","Unnamed: Central Lowlands 5",0,33,3,0.729863883574872,NA
"1033","ASRP.dev.and.climate.2040","Garrard Creek",424,10481,1221,2.16736510507989,787.211130909197
"1034","ASRP.dev.and.climate.2040","Unnamed: Black Hills 5",148,3633,428,2.95881490805394,223.555888099216
"1035","ASRP.dev.and.climate.2040","Unnamed: Central Lowlands 4",81,2009,153,3.0339146019088,120.824680900556
"1036","ASRP.dev.and.climate.2040","Rock Creek (Lower Chehalis)",639,15271,1740,3.02178463841903,955.057401890084
"1037","ASRP.dev.and.climate.2040","Cedar Creek",949,22022,3156,3.80835257942215,1286.92053282543
"1038","ASRP.dev.and.climate.2040","Unnamed: Black Hills 4",34,791,101,2.03939856678506,66.7112246317258
"1039","ASRP.dev.and.climate.2040","Unnamed: Central Lowlands 3",0,0,0,0.748210322640513,NA
"1040","ASRP.dev.and.climate.2040","Porter Creek",452,10229,1771,2.82711376532152,699.384705090031
"1041","ASRP.dev.and.climate.2040","Unnamed: Black Hills 3",0,0,0,0,NA
"1042","ASRP.dev.and.climate.2040","Mox Chehalis Creek",2171,53107,5696,4.89635801853471,2728.18699094711
"1043","ASRP.dev.and.climate.2040","Unnamed: Black Hills 2",0,0,0,0,NA
"1044","ASRP.dev.and.climate.2040","Unnamed: Central Lowlands 2",274,6927,849,1.67323996384498,680.987128980198
"1045","ASRP.dev.and.climate.2040","Cloquallum Creek",3812,96808,9976,3.37891395922238,5414.41188430626
"1046","ASRP.dev.and.climate.2040","Unnamed: Black Hills 1",1086,29901,2317,2.79801100165268,1690.00075361151
"1047","ASRP.dev.and.climate.2040","Unnamed: Central Lowlands 1",104,3384,339,2.54488232038869,171.31904341674
"1048","ASRP.dev.and.climate.2040","Satsop River",21627,536672,50232,4.33182846496734,28118.0304439133
"1049","ASRP.dev.and.climate.2040","Unnamed: Olympic Mountains 1",0,0,0,0.545150626350434,NA
"1050","ASRP.dev.and.climate.2040","Wynoochee River",6408,177959,0,4.2143656520958,8401.55042131623
"1051","ASRP.dev.and.climate.2040","Wishkah River",2035,55870,0,1.79285401417215,4601.6767950022
"1052","ASRP.dev.and.climate.2040","Hoquiam River",3840,107275,0,3.73344169791276,5244.82235378651
"1053","ASRP.dev.and.climate.2040","Humptulips River",13570,365252,0,4.47576862116692,17474.1724231471
"1054","ASRP.dev.and.climate.2040","Johns River",485,12971,0,2.00105892521215,969.486964538291
"1055","ASRP.dev.and.climate.2040","Elk River",457,12536,0,2.51028583290538,759.591728031281
"1056","ASRP.dev.and.climate.2040","Andrews",92,2437,0,2.26996776975782,164.442783345237
"1057","ASRP.dev.and.climate.2040","Upper Chehalis Estuary",11,402,0,1.04172461449965,274.633352444583
"1058","ASRP.dev.and.climate.2040","Lower Chehalis Estuary",0,0,0,0,NA
"1059","ASRP.dev.and.climate.2040","Upper Skookumchuck",0,0,0,0,NA
"1060","ASRP.dev.and.climate.2040","Mainstem: Upper Chehalis 1",0,0,0,0.530135662306744,NA
"1061","ASRP.dev.and.climate.2040","Mainstem: Upper Chehalis 2",0,0,0,0.797700198418343,NA
"1062","ASRP.dev.and.climate.2040","Mainstem: Middle Chehalis 1",0,0,0,0.543837438319616,NA
"1063","ASRP.dev.and.climate.2040","Mainstem: Middle Chehalis 2",0,0,0,0.243018496570353,NA
"1064","ASRP.dev.and.climate.2040","Mainstem: Middle Chehalis 3",0,0,0,0,NA
"1065","ASRP.dev.and.climate.2040","Mainstem: Lower Chehalis 1",0,0,0,0.187145168357724,NA
"1066","ASRP.dev.and.climate.2040","Mainstem: Lower Chehalis 2",2,39,0,1.00479957695331,418.703392706861
"1067","ASRP.dev.and.climate.2040","Mainstem: Lower Chehalis 3",0,0,0,0.828517503145323,NA
"1068","ASRP.dev.and.climate.2040","Mainstem: Lower Chehalis 4",0,0,0,0.776767221302936,NA
"1069","ASRP.dev.and.climate.2040","Mainstem: Lower Chehalis 5",135,3675,0,1.70257406686449,327.150559445625
"1070","ASRP.dev.and.climate.2040","Mainstem: Lower Chehalis 6",0,0,0,0.821787550285639,NA
"1071","ASRP.dev.and.climate.2040","Mainstem: Lower Chehalis 7",0,0,0,0.988956992127437,NA
"1072","ASRP.dev.and.climate.2080","Upper Chehalis: Above Proposed Dam",685,15775,2601,1.84192461013146,1498.61204050448
"1073","ASRP.dev.and.climate.2080","Upper Chehalis: Proposed Dam to Elk Creek",492,11992,1663,2.1804923094606,908.775269145809
"1074","ASRP.dev.and.climate.2080","Elk Creek",1105,26083,3333,2.36265472494932,1915.91708689528
"1075","ASRP.dev.and.climate.2080","Unnamed: Willapa Hills 3",17,420,37,1.12063887129065,157.916437779347
"1076","ASRP.dev.and.climate.2080","South Fork Chehalis",3552,86376,9033,2.57845600958891,5802.30027978105
"1077","ASRP.dev.and.climate.2080","Unnamed: Willapa Hills 2",184,5243,552,2.39979089305636,315.448204808824
"1078","ASRP.dev.and.climate.2080","Unnamed: Willapa Hills 1",0,0,0,0,NA
"1079","ASRP.dev.and.climate.2080","Unnamed: Willapa Hills 4",12,462,41,1.26362952299449,57.518422457756
"1080","ASRP.dev.and.climate.2080","Stearns Creek",379,9826,979,2.62660044321731,612.001289026064
"1081","ASRP.dev.and.climate.2080","Bunker Creek",213,5586,562,1.57026076870662,586.513332300757
"1082","ASRP.dev.and.climate.2080","Unnamed: Central Lowlands 9",3,84,8,0.952001380252812,NA
"1083","ASRP.dev.and.climate.2080","Newaukum River",3859,94211,11510,2.39404066740687,6627.21192539407
"1084","ASRP.dev.and.climate.2080","Dillenbaugh Creek",46,1760,130,1.42382945495392,154.534221636391
"1085","ASRP.dev.and.climate.2080","Unnamed: Central Lowlands 8",0,0,0,0.706622565105879,NA
"1086","ASRP.dev.and.climate.2080","Salzer Creek",1,27,2,0.940698007548467,NA
"1087","ASRP.dev.and.climate.2080","Unnamed: Cascade Mountains 1",0,0,0,0.162689582739667,NA
"1088","ASRP.dev.and.climate.2080","Unnamed: Central Lowlands 7",0,0,0,0.178563766012432,NA
"1089","ASRP.dev.and.climate.2080","Skookumchuck River",4567,121486,11571,2.35330839112657,7941.69273814091
"1090","ASRP.dev.and.climate.2080","Lincoln Creek",824,20190,2684,2.1561382633459,1536.7175236077
"1091","ASRP.dev.and.climate.2080","Unnamed: Central Lowlands 6",1118,28166,2942,4.81542946525383,1411.02074908771
"1092","ASRP.dev.and.climate.2080","Unnamed: Black River 1",253,7226,727,2.30041835922988,447.552774654634
"1093","ASRP.dev.and.climate.2080","Scatter Creek",751,19317,1920,2.82383130531904,1162.77053919942
"1094","ASRP.dev.and.climate.2080","Black River",4049,107835,9969,3.02729449091477,6046.24313272956
"1095","ASRP.dev.and.climate.2080","Unnamed: Central Lowlands 5",0,31,3,0.721468288288814,NA
"1096","ASRP.dev.and.climate.2080","Garrard Creek",333,8268,931,1.90132272880664,702.457009522989
"1097","ASRP.dev.and.climate.2080","Unnamed: Black Hills 5",130,3207,367,2.71481397540922,205.809972314331
"1098","ASRP.dev.and.climate.2080","Unnamed: Central Lowlands 4",81,2009,155,3.02807271099492,120.939396433308
"1099","ASRP.dev.and.climate.2080","Rock Creek (Lower Chehalis)",547,13070,1491,2.66652366977271,875.22816136455
"1100","ASRP.dev.and.climate.2080","Cedar Creek",841,19524,2781,3.37119953849069,1195.67280857153
"1101","ASRP.dev.and.climate.2080","Unnamed: Black Hills 4",26,614,78,1.72773005594176,61.7275335651117
"1102","ASRP.dev.and.climate.2080","Unnamed: Central Lowlands 3",0,0,0,0.630716753537844,NA
"1103","ASRP.dev.and.climate.2080","Porter Creek",387,8821,1462,2.49492945505075,645.875091859676
"1104","ASRP.dev.and.climate.2080","Unnamed: Black Hills 3",0,0,0,0,NA
"1105","ASRP.dev.and.climate.2080","Mox Chehalis Creek",2104,51511,5483,4.79341481675737,2658.64537933094
"1106","ASRP.dev.and.climate.2080","Unnamed: Black Hills 2",0,0,0,0,NA
"1107","ASRP.dev.and.climate.2080","Unnamed: Central Lowlands 2",204,5173,613,1.48141630087062,627.749672852946
"1108","ASRP.dev.and.climate.2080","Cloquallum Creek",3372,86035,8714,3.07397234643615,4997.86545852183
"1109","ASRP.dev.and.climate.2080","Unnamed: Black Hills 1",1043,28694,2243,2.73169398169822,1645.30041278839
"1110","ASRP.dev.and.climate.2080","Unnamed: Central Lowlands 1",94,3056,304,2.35135659358963,163.559730159977
"1111","ASRP.dev.and.climate.2080","Satsop River",19743,490541,45292,4.0266625469208,26266.0264999597
"1112","ASRP.dev.and.climate.2080","Unnamed: Olympic Mountains 1",0,0,0,0.491222970839522,NA
"1113","ASRP.dev.and.climate.2080","Wynoochee River",6004,166808,0,3.91706821403561,8062.23092209893
"1114","ASRP.dev.and.climate.2080","Wishkah River",1667,45925,0,1.6176767705282,4365.82255499827
"1115","ASRP.dev.and.climate.2080","Hoquiam River",3441,96130,0,3.35727355391056,4900.73724360145
"1116","ASRP.dev.and.climate.2080","Humptulips River",12375,334064,0,4.0968056514802,16371.0531569312
"1117","ASRP.dev.and.climate.2080","Johns River",388,10392,0,1.75501648519606,901.896064003484
"1118","ASRP.dev.and.climate.2080","Elk River",385,10565,0,2.21275391656214,702.459292229194
"1119","ASRP.dev.and.climate.2080","Andrews",81,2144,0,2.05971985553413,157.435295212218
"1120","ASRP.dev.and.climate.2080","Upper Chehalis Estuary",3,96,0,0.960544639244082,NA
"1121","ASRP.dev.and.climate.2080","Lower Chehalis Estuary",0,0,0,0,NA
"1122","ASRP.dev.and.climate.2080","Upper Skookumchuck",0,0,0,0,NA
"1123","ASRP.dev.and.climate.2080","Mainstem: Upper Chehalis 1",0,0,0,0.4276526130693,NA
"1124","ASRP.dev.and.climate.2080","Mainstem: Upper Chehalis 2",0,0,0,0.650745697140615,NA
"1125","ASRP.dev.and.climate.2080","Mainstem: Middle Chehalis 1",0,0,0,0.407043811174973,NA
"1126","ASRP.dev.and.climate.2080","Mainstem: Middle Chehalis 2",0,0,0,0.186475863462991,NA
"1127","ASRP.dev.and.climate.2080","Mainstem: Middle Chehalis 3",0,0,0,0,NA
"1128","ASRP.dev.and.climate.2080","Mainstem: Lower Chehalis 1",0,0,0,0.14696358674671,NA
"1129","ASRP.dev.and.climate.2080","Mainstem: Lower Chehalis 2",0,4,0,0.980934254725318,NA
"1130","ASRP.dev.and.climate.2080","Mainstem: Lower Chehalis 3",0,0,0,0.52589452811172,NA
"1131","ASRP.dev.and.climate.2080","Mainstem: Lower Chehalis 4",0,0,0,0.640621872032718,NA
"1132","ASRP.dev.and.climate.2080","Mainstem: Lower Chehalis 5",32,867,0,1.31689558749905,132.979632605633
"1133","ASRP.dev.and.climate.2080","Mainstem: Lower Chehalis 6",0,0,0,0.683976956643942,NA
"1134","ASRP.dev.and.climate.2080","Mainstem: Lower Chehalis 7",0,0,0,0.803234961581778,NA
