"","stage_nm","1","2","3","4","5","6","7","8","9","10","11","12","13","14","15","16","17","18","19","20","21","22","23","24","25","26","27","28","29","30","31","32","33","34","35","36","37","38","39","40","41","42","43","44","45","46","47","48","49","50","51","52","53","54","55","56","57","58","59","60","61","62","63"
"1","eggtofry_surv",0.192950489730777,0.225809800216816,0.195489129477306,0.16659262012227,0.225518963411774,0.237737572896998,NA,0.404189294216874,0.325234114791463,0.222011829022741,0.281819079267004,0.247153134627736,0.303678792827661,0.163340331452525,0.196099064345261,0.114723451152276,0.17795681126344,0.227893400953773,0.221009856520775,0.29431119382271,0.14771185145069,0.260662026463143,0.235762857177091,0.173736656171799,0.206550086129216,0.238167693748584,0.14732938742896,0.253678422959776,0.313448235053278,0.258546737055523,0.169208231880993,0.283566808267046,0.446074785609827,0.277369710480528,0,0.152778724839833,0.224596187028409,0.167478452340209,0.297603027574425,0.278987305045193,0.133947177007838,0.343071500168958,0.148965900355426,0.225055917043912,0.278842696626296,0.164019747722311,0.189710263998941,0.169398614809431,0.118421615222804,NA,NA,0.124447550597506,0.187921317432279,0.188945599482331,0.0990447345895468,0,0.233467061767654,0.279915833088079,0.343552113758441,0.188149036046373,0.484877635464418,0.163860771397809,0.234212579342572
"2","adults",9682.54856819301,2056.1361469675,2917.5712527053,225.540830855153,18537.1347370248,394.052152381183,NA,89.4942183892462,919.51159753969,1466.57364191455,264.483642529603,28981.7110640309,503.839534398726,172.49217408534,619.370116299153,173.456455418161,211.642226594466,20232.4084874623,2812.63945861814,1105.16562193415,482.430821450418,2827.60060439185,5837.47068925519,61.2244160659209,1206.53662689489,251.536470671629,287.041041050065,1311.48252406005,2175.69606005522,95.2059224395263,95.9291152420198,1526.03745360185,4.79395754383525,2230.80198381241,0,1797.31831411852,6927.61770052247,1263.67243057134,386.123283203605,83902.3658240241,888.814332415568,55240.3021266848,14747.2473442683,6652.12394368428,43626.5139424667,1946.03576860674,1096.1409394474,267.866478470512,558.710870090214,NA,NA,5687.31509092,2703.47715736,5260.91394423733,6753.32255669333,0,5096.32160922667,18241.8847502933,16097.3605557333,17232.0723206652,2056.39599504193,19684.047363073,1142.5611648
"3","eggs",15128982.1378016,3212712.72963671,4558705.08235203,352407.548211177,28964273.0266013,615706.488095598,NA,139834.716233197,1436736.87115577,2291521.31549149,413255.691452505,45283923.5375483,787249.27249801,269519.022008344,967765.806717426,271025.711590876,330690.979053853,31613138.2616598,4394749.15409085,1726821.28427211,753798.158516278,4418125.94436227,9121047.95196124,95663.1501030015,1885213.47952327,393025.735424421,448501.626640726,2049191.44384384,3399525.09383629,148759.25381176,149889.242565656,2384433.52125289,7490.55866224257,3485628.09970689,0,2808309.86581018,10824402.6570664,1974488.17276771,603317.630005632,131097446.600038,1388772.39439932,86312972.072945,23042573.9754192,10393943.6620067,68166428.0351042,3040680.88844803,1712720.21788656,418541.372610175,872985.73451596,NA,NA,8886429.8295625,4224183.058375,8220178.03787083,10552066.4948333,0,7963002.51441667,28502944.9223333,25152125.8683333,26925113.0010394,3213118.74225301,30756324.0048015,1785251.82
"4","capacity_s",237576.208268436,119124.72970646,272717.479630948,11820.0244183397,434689.616733411,53394.0641305858,NA,7166.06335169624,54261.4708553744,58626.5495374434,8316.89820396474,693631.193862383,27109.3024812819,6522.00916637323,11402.8287741452,22919.5398857532,8025.16047546748,667116.33845816,147721.294865271,128799.770581297,44339.2958569769,75176.1525043299,473559.248352574,5538.17687091713,78127.4442400809,16331.8847763604,97623.7459859672,91854.2665372436,134967.815361963,7032.0174602329,5641.9225908251,95059.4716442351,729.1684181813,238117.026849523,0,102734.288414587,434118.488549948,170537.32227447,27918.9798664579,1962101.36885726,45642.2377963886,1126387.33357608,804820.018891233,584222.970663463,1429556.0709972,159395.848781203,96418.590071627,23350.9593853907,19104.3161506296,NA,NA,26952.945053462,13539.7624467696,22149.4683722023,28820.0631862593,16677.5323525574,13473.8588179744,42296.9076339475,41181.5372550071,50241.0437308067,41081.8593325616,81005.1510530837,202815.76396109
"5","surv_s",0.650606002594212,0.584676074509076,0.658197437379065,0.37989642482209,0.551540067859274,0.569102158833118,NA,0.327517151553292,0.384854921268143,0.369457189997496,0.29821440557239,0.552886475735345,0.347922245778887,0.281900093465361,0.311743166541515,0.757573094439667,0.320483969763871,0.485902942219756,0.478516073046916,0.667791621200166,0.651451422638837,0.510303407771368,0.541511770743,0.653829536726099,0.485262365360494,0.513032739724947,0.765541484520622,0.545683013182687,0.636382152648659,0.529813328049413,0.495372459075201,0.629936261413646,0.519533028753614,0.73454661558751,0,0.561671011085955,0.649789890399008,0.711715328369076,0.597547453159416,0.69911493501437,0.539714739127153,0.712279783184513,0.720891477521902,0.737037268914992,0.690840715656659,0.619409280484285,0.629160317051039,0.607364969460182,0.622700975820468,NA,NA,0.348433366053107,0.374457857991522,0.238561251626671,0.158178860040026,0.0835870429501642,0.0576764609846959,0.164426953952645,0.162114439424073,0.218962805256412,0.198366415318233,0.244945046546459,0.294184995419712
"6","capacity_w",76427.9830420018,54055.6376534686,104044.006652138,36934.5442984207,562075.518059129,34334.0564736851,NA,13482.7927820831,88305.4581367566,66458.9510453975,12574.9281042541,453953.018659026,151715.259042603,4737.74433427148,21568.7210760986,28524.900645353,7820.66104635483,958165.007224056,133496.909464839,127277.721799975,73372.5478541122,177977.966592718,2694465.05041107,5098.91604701185,66988.854484393,18202.4806390174,104824.369292322,63391.4504861256,70593.9686767458,3581.66535449026,4406.23910485796,34872.7490902541,763.720511694704,239669.072776122,0,38117.0812814705,523472.221440457,384799.740589432,11915.7173600043,2387058.08222871,13476.7264095598,424934.050077048,238784.519816328,376796.56495992,1203290.39386677,58403.3086303279,51173.392464067,7902.85420106733,16084.3611671382,NA,NA,21803.6322672323,8579.61491135116,22523.2867973558,53176.0381752909,32491.2927696315,61693.4769450608,181309.672516008,118043.275926219,130803.070088659,101011.697302485,114927.466109169,172955.107384867
"7","surv_w",0.4817278272882,0.592026603908576,0.639978280229299,0.74396793285079,0.692674065245914,0.686791431977235,NA,0.72020292334127,0.714205558417529,0.665290757079006,0.653944674027268,0.587371285515423,0.761179282071525,0.592205001855869,0.617269444144371,0.751871459172304,0.637077427195753,0.687318087788344,0.661612497615994,0.734222570712404,0.749828662044208,0.705847493134592,0.757475891235573,0.711380332373175,0.67106568844071,0.701021934611724,0.767421946487942,0.676888349608129,0.600235380106866,0.586571096031216,0.659690842115448,0.495033784918596,0.720544316778569,0.739896518157423,0,0.552194715067064,0.717586652495997,0.764412656009845,0.608455917845547,0.688126112101521,0.460658024285982,0.533003890053842,0.53683648098686,0.694832991925231,0.672741821920818,0.596101755189143,0.660694998038544,0.607325214668055,0.61785102143446,NA,NA,0.359623074789943,0.35,0.355169388333397,0.42580936768383,0.35,0.378224190566381,0.662080694398719,0.465993242093332,0.555598519054421,0.501069150006992,0.555603772204936,0.454539407406838
"8","prespawn_surv",0.937680792674236,0.928805403577829,0.945110221588986,0.941543535190893,0.942248910572528,0.942891218822304,NA,0.933310768122755,0.924531139906827,0.945269325366898,0.909977171208588,0.937635669648392,0.906189922967272,0.918229153474627,0.939847267239239,0.887539620154393,0.935099257555005,0.937471190318906,0.944712513167707,0.94374533712984,0.893741769807653,0.920499105398567,0.912357291990886,0.944069425197215,0.944280062750632,0.926010953104118,0.949518994229501,0.945609253194601,0.948160710740219,0.947145284248959,0.942515059288228,0.946485766436744,0.95,0.924914468169039,0,0.944264899181996,0.935302561957704,0.875851752157586,0.946477145915119,0.940889537116987,0.936855343578939,0.941530606969859,0.945084416833406,0.945368129618243,0.941014989245992,0.939120857703497,0.9447833878418,0.944572364956569,0.930485761630872,NA,NA,0.940616647232957,0.941543272238885,0.941585402738608,0.941203374898845,0,0.929000917241929,0.92830011931262,0.926773519672557,0.925369655863542,0.926677707830756,0.927365086301226,0.934582857332934
"9","movement",11,11,11,11,11,11,NA,11,11,11,11,11,11,11,11,11,11,11,11,11,11,11,11,11,11,11,11,11,11,11,11,11,11,11,11,11,11,11,11,11,11,11,11,11,11,11,11,11,11,NA,NA,11,11,11,11,11,11,11,11,11,11,11,11
