"","stage_nm","1","2","3","4","5","6","7","8","9","10","11","12","13","14","15","16","17","18","19","20","21","22","23","24","25","26","27","28","29","30","31","32","33","34","35","36","37","38","39","40","41","42","43","44","45","46","47","48","49","50","51","52","53","54","55","56","57","58","59","60","61","62","63"
"1","eggtofry_surv",0.192169313803957,0.227054873142367,0.195489129477306,0.168406566249515,0.226475142945397,0.255112501026405,NA,0.382232699381072,0.328948916719688,0.230542195245713,0.215516068716409,0.248465558103898,0.252140927701459,0.163340331452525,0.192132211827673,0.245899328221864,0.0745523628384633,0.237055341160238,0.223164440651415,0.303940337973085,0.164386552383853,0.262784415368512,0.255979852207373,0.206479335608955,0.205767371111953,0.236309641117789,0.160258415652445,0.253678422959776,0.313878109001573,0.258546737055523,0.165086443320057,0.283566808267046,0,0.270856303139849,0,0.156119297690225,0.226597463072188,0.164615670998874,0.282284908294993,0.280611618384165,0.069472998375924,0.327797504230546,0.137628792461559,0.225758030760471,0.279515746586681,0.16453395905854,0.1899387101544,0.169398614809431,0.101858336833192,NA,NA,0.124447550597506,0.187921317432279,0.188945599482331,0.0990447345895468,0,0.233467061767654,0.279915833088079,0.343552113758441,0.188149036046373,0.484877635464418,0.163860771397809,0.234212579342572
"2","adults",9348.21980508818,1970.84790013728,2917.5712527053,222.291572839627,18170.8094430306,255.527472225761,NA,34.2473366977943,770.92409190181,1282.09375562626,68.7345801716426,27830.9684742564,191.773362514558,172.49217408534,434.050412972772,7.43347424217663,23.6650550062138,17373.8432355245,2697.14626124034,956.499348090071,387.775410786717,2778.10358878237,4920.0166731334,15.8857477582976,1092.35372343026,248.312022097234,30.1779075898657,1311.48252406005,2172.24973164001,95.2059224395263,49.5772304411565,1526.03745360185,0,1948.09282558022,0,1630.80193608926,6413.21100301182,1031.97473302302,255.849506077815,80933.6949442666,510.708314260176,51112.4028384189,13813.0158666636,6090.72961883173,43094.9474789948,1856.10200457066,1048.09379991386,267.866478470512,471.578397453269,NA,NA,5687.31509092,2703.47715736,5260.91394423733,6753.32255669333,0,5096.32160922667,18241.8847502933,16097.3605557333,17232.0723206652,2056.39599504193,19684.047363073,1142.5611648
"3","eggs",14606593.4454503,3079449.8439645,4558705.08235203,347330.582561917,28391889.7547353,399261.675352751,NA,53511.4635903036,1204568.89359658,2003271.49316603,107397.781518192,43485888.2410257,299645.878928997,269519.022008344,678203.770269956,11614.803503401,36976.6484472091,27146630.055507,4214291.03318804,1494530.23139074,605899.079354245,4340786.85747246,7687526.05177093,24821.48087234,1706802.69285979,387987.534526929,47152.9806091651,2049191.44384384,3394140.20568752,148759.25381176,77464.422564307,2384433.52125289,0,3043895.03996909,0,2548128.02513947,10020642.192206,1612460.52034846,399764.853246586,126458898.350417,797981.741031525,79863129.4350295,21582837.2916618,9516765.02942457,67335855.4359293,2900159.38214165,1637646.56236541,418541.372610175,736841.246020732,NA,NA,8886429.8295625,4224183.058375,8220178.03787083,10552066.4948333,0,7963002.51441667,28502944.9223333,25152125.8683333,26925113.0010394,3213118.74225301,30756324.0048015,1785251.82
"4","capacity_s",204923.102768586,119195.253867331,272780.979257831,11820.0244183397,433044.773266878,50929.6848294407,NA,6902.68240166437,53396.9530320452,58626.5495374434,4826.82322638449,674478.492384025,15106.2802755206,6522.00916637323,11402.8287741452,353.231759502407,873.322561468136,709229.143351563,146380.143337013,124875.470081106,44339.2958569769,75012.2301601235,468590.359737046,5538.17687091713,77571.080122335,16331.8847763604,61881.3024484591,91854.2665372436,134967.815361963,7032.0174602329,5641.9225908251,94688.7970158226,0,231731.179149174,0,102734.288414587,430526.684331937,168697.064755829,27918.9798664579,1954832.92299815,45642.2377963886,1170346.33908989,819157.740747288,570417.945084722,1445808.53047507,150739.170559591,96418.590071627,23350.9593853907,19104.3161506296,NA,NA,27647.5810132416,14483.5148984378,25159.4134167709,32727.7902220096,19680.9451898099,15796.1988936038,49395.0525246352,44638.8531447004,52348.1527093633,42308.2034518363,87319.5331917879,211368.517882299
"5","surv_s",0.642160487541746,0.584577635135568,0.658163179662465,0.37989642482209,0.550985908413788,0.577467788354155,NA,0.329248882378875,0.385147377455214,0.369457189997496,0.302507096563992,0.55740346319952,0.329155878384086,0.281900093465361,0.311743166541515,0.237378579007744,0.269534163008099,0.483524625823511,0.478702609948933,0.675148314569326,0.651451422638837,0.510298644421778,0.539946482164667,0.653829536726099,0.485511869316679,0.513032739724947,0.825064132155273,0.545683013182687,0.636382152648659,0.529813328049413,0.495372459075201,0.630239349296311,0,0.738594758903974,0,0.561671011085955,0.650197724800911,0.71318847532532,0.597547453159416,0.695629160230445,0.539714739127153,0.709483365044057,0.720411975118527,0.739270003441375,0.688892950818635,0.61951561632014,0.629160317051039,0.607364969460182,0.622700975820468,NA,NA,0.347909000463245,0.373114427354479,0.241355099037614,0.160371306244102,0.0835886473931787,0.0574443275822527,0.165707763923332,0.163187492083054,0.21962815568269,0.197715555884706,0.245859591249342,0.295224448136865
"6","capacity_w",70597.2623108303,54129.7302019853,104081.230101036,36934.5442984207,562026.553294203,32224.5535123039,NA,13183.3072040427,87493.5797270907,66458.9510453975,7150.94648972858,440725.38902259,136928.570732101,4737.74433427148,21568.7210760986,496.430450497652,1060.00719779924,930305.403904402,132673.635289638,123048.087561764,73372.5478541122,177884.392529058,2691768.05783866,5098.91604701185,66607.2885957047,18202.4806390174,60185.9273760558,63391.4504861256,70593.9686767458,3581.66535449026,4406.23910485796,34643.4025610776,0,205926.229155445,0,38117.0812814705,521813.454472385,383912.637479094,11915.7173600043,2369549.64818139,13476.7264095598,437976.331488878,242012.27982752,368673.327937619,1209731.73764267,54862.9755337219,51173.392464067,7902.85420106733,16084.3611671382,NA,NA,22951.0270084512,10015.0598336944,28815.6962993775,62502.7543432428,41384.6552609087,71376.7273692919,208188.189321454,142711.536180846,143297.55900018,108794.694571039,121683.680546652,180904.179060585
"7","surv_w",0.479296197093452,0.591695318904466,0.639874572849157,0.74396793285079,0.69077615311262,0.692070426052847,NA,0.721361683959952,0.714464806884566,0.665290757079006,0.662063000122128,0.584517161112133,0.767655959486044,0.592205001855869,0.617269444144371,0.599164500335957,0.590732673974064,0.674444552830149,0.661740177232216,0.736879840049665,0.749828662044208,0.705861081431865,0.757293962891377,0.711380332373175,0.670682512668373,0.701021934611724,0.777133978115962,0.676888349608129,0.600235380106866,0.586571096031216,0.659690842115448,0.493410176708431,0,0.738263276290793,0,0.552194715067064,0.718066872684474,0.764721179105683,0.608455917845547,0.685675574060871,0.460658024285982,0.527278775870325,0.533815669551269,0.694941311620093,0.671000796772225,0.593346791838143,0.660694998038544,0.607325214668055,0.61785102143446,NA,NA,0.359141986714701,0.35,0.354040562295991,0.414497026928795,0.35,0.37439518473565,0.621788945782282,0.445943345915981,0.537671846510423,0.490261906266817,0.544188082213216,0.449945863759979
"8","prespawn_surv",0.93761021021521,0.908414788179004,0.945110221588986,0.933031900417815,0.937408949579178,0.798777702156139,NA,0.58265054834582,0.896632340744474,0.883556575442265,0.750438386513965,0.930987872189328,0.605811775951519,0.918229153474627,0.800621345104249,0.352869056710623,0.611483930500693,0.895266335855239,0.920575353857441,0.904322326240672,0.799920769254146,0.909294245086609,0.873565302992595,0.302032504591418,0.910563879129319,0.917600340337008,0.946552958144802,0.945609253194601,0.947993658722328,0.947145284248959,0.50166754531359,0.946485766436744,0,0.92867549446673,0,0.885001208032313,0.909079255383733,0.847871590281777,0.704828743071028,0.927012500644479,0.897482333828603,0.905992156088102,0.924516324095675,0.910234675240591,0.937330240216343,0.939713267948789,0.916228107262527,0.944572364956569,0.839615580580598,NA,NA,0.940616647232957,0.941543272238885,0.941585402738608,0.941203374898845,0,0.929000917241929,0.92830011931262,0.926773519672557,0.925369655863542,0.926677707830756,0.927365086301226,0.934582857332934
"9","movement",11,11,11,11,11,11,NA,11,11,11,11,11,11,11,11,11,11,11,11,11,11,11,11,11,11,11,11,11,11,11,11,11,11,11,11,11,11,11,11,11,11,11,11,11,11,11,11,11,11,NA,NA,11,11,11,11,11,11,11,11,11,11,11,11
