"","stage_nm","1","2","3","4","5","6","7","8","9","10","11","12","13","14","15","16","17","18","19","20","21","22","23","24","25","26","27","28","29","30","31","32","33","34","35","36","37","38","39","40","41","42","43","44","45","46","47","48","49","50","51","52","53","54","55","56","57","58","59","60","61","62","63"
"1","eggtofry_surv",NA,NA,NA,NA,0.379723903811344,NA,NA,NA,0.117118570812444,0.356726065222512,0.716952730922604,0.329274280717016,0.334735139918373,0.18991750320041,0.234412960682441,0.280231288098172,0.0984174350785968,0.345343128494161,0.310960644090564,0.506669009239654,0.381343037031688,0.347153922767044,0.238685163090836,NA,0.374579736522065,NA,0.199345691308034,0.385122536771344,0.524636214918187,0.38569034230065,0.27441385706051,0.4435525407059,NA,0.412643363091844,NA,0.212357740584079,0.409524810094154,0.300116957719745,NA,0.452239002981254,0.042495076700084,0.410043656134862,0.152816380138151,0.356342102133494,0.366760951623444,0.268197588597491,0.320642904944213,0.330984168156295,0,NA,NA,NA,NA,NA,0,0,0.716952730922604,0,0,0.716952730922604,0,0,0.716952730922604
"2","adults",NA,NA,NA,NA,1528.59759582609,NA,NA,NA,234.657473787632,210.812103060105,17.975002401995,55062.1036660226,594.080525180968,194.031024458935,605.815258274991,23.0276104241341,73.3102247475101,23193.1685876737,2379.90165628274,379.365038478863,527.700555944376,6922.07952776924,4430.67997835977,NA,2717.24228982455,NA,93.4859093816491,3581.12433521798,6529.68827222619,294.931390165924,129.436105961957,4529.14270868692,NA,5767.11482891511,NA,3746.33335160713,16618.9759696045,2843.48548528317,NA,198147.707655217,1615.27011731969,120258.288613974,34384.8358645063,11964.7514411957,116262.241939061,3512.20466230873,1728.84375188453,517.000433981495,0,NA,NA,NA,NA,NA,0,0,22.6595652173913,0,0,30.2182608695652,0,0,1878.63455121739
"3","eggs",NA,NA,NA,NA,2574480.1613913,NA,NA,NA,395212.587431801,355051.963048598,30273.6882559915,92736174.5954065,1000556.673989,326789.093825574,1020320.43498946,38783.3438722259,123469.852206333,39062178.6739768,4008255.42110777,638930.591122296,888758.831064212,11658239.204664,7462197.85829015,NA,4576408.06707293,NA,157449.952642777,6031367.30141976,10997369.7216441,496726.551858398,217997.652146454,7628029.82515691,NA,9713035.50133071,NA,6309614.06586463,27989854.264597,4789028.18574008,NA,333722454.998261,2720454.93443316,202540275.560377,57911302.5086422,20151160.3220138,195810091.686839,5915292.06283576,2911736.84527921,870737.573021465,0,NA,NA,NA,NA,NA,0,0,38163.4782608696,0,0,50893.9130434783,0,0,3164016.08626087
"4","surv_s",NA,NA,NA,NA,0.64,NA,NA,NA,0.64,0.64,0.64,0.64,0.64,0.64,0.64,0.64,0.64,0.64,0.64,0.64,0.64,0.64,0.64,NA,0.64,NA,0.64,0.64,0.64,0.64,0.64,0.64,NA,0.64,NA,0.64,0.64,0.64,NA,0.64,0.64,0.64,0.64,0.64,0.64,0.64,0.64,0.64,0.64,NA,NA,0.64,0.64,0.64,0.64,0.64,0.64,0.64,0.64,0.64,0.64,0.64,0.64
"5","prespawn_surv",NA,NA,NA,NA,1,NA,NA,NA,1,1,1,0.99997031917636,0.707373707671779,1,0.997010808411744,0.457136062873057,0.666683398719308,0.990919745960043,1,1,0.862278028322464,1,0.973176731143969,NA,1,NA,1,1,1,1,0.538596494346362,1,NA,1,NA,0.917792470775646,0.98901375813344,0.953696049977088,NA,0.989787760505011,1,0.998067757508269,0.977550483902394,0.975255189207226,0.999705528378612,1,0.988009480979041,1,0,NA,NA,0,0,0,0,0,1,0,0,1,0,0,1
"6","fry_colonization_cap",NA,NA,NA,NA,11311.9796375196,NA,NA,NA,22896.7569240176,20547.4884037013,1631.94100754954,487862.585756412,110032.780629922,23295.441328036,63380.7892865495,6484.96596850823,13378.4862407747,999290.889322103,228055.101051132,38302.2730602911,75687.3081370729,628451.957126417,601900.274149605,NA,328584.943236837,NA,10856.1513094873,396629.575659407,878264.370503888,44703.5703277035,28120.9801255284,580088.925109167,NA,474764.386986309,NA,450294.450889214,1463366.21436373,308908.277595005,NA,5298313.12703982,146649.523809288,2493677.34099997,2181302.32138419,960510.668227112,3120055.72061115,365793.756216176,199307.333281698,68230.5706901736,0,NA,NA,174668.201960656,66331.1738076782,174970.743723491,325779.380404976,175479.804809187,290469.509446981,383399.704833324,732191.04134252,571528.386637386,459223.998595555,347870.608552132,670160.81341041
"7","fry_colonization_surv",NA,NA,NA,NA,0.8,NA,NA,NA,0.8,0.8,0.8,0.8,0.8,0.8,0.8,0.8,0.8,0.8,0.8,0.8,0.8,0.8,0.8,NA,0.8,NA,0.8,0.8,0.8,0.8,0.8,0.8,NA,0.8,NA,0.8,0.8,0.8,NA,0.8,0.8,0.8,0.8,0.8,0.8,0.8,0.8,0.8,0,NA,NA,0.8,0.8,0.8,0.8,0.8,0.8,0.8,0.8,0.8,0.8,0.8,0.8
