"","stage_nm","1","2","3","4","5","6","7","8","9","10","11","12","13","14","15","16","17","18","19","20","21","22","23","24","25","26","27","28","29","30","31","32","33","34","35","36","37","38","39","40","41","42","43","44","45","46","47","48","49","50","51","52","53","54","55","56","57","58","59","60","61","62","63"
"1","eggtofry_surv",0.19050342184536,0.266351323972287,NA,NA,0.240459335888906,0.371799365755519,NA,0,NA,NA,NA,0.260563859720534,0.17389319312712,0.122171209126431,NA,NA,NA,0.30211176330782,0.258415526301927,0.127187112115606,0.353324289073588,NA,0.293718830552942,NA,0.212732692905832,0,0.160258415652445,NA,0.306827096933153,NA,NA,0.27678979868631,NA,0.322531739232675,0,0,0.226225800796086,NA,NA,0.284986776471548,0.042495076700084,0.336214287581517,0.132660751491065,0.221011836679416,0.309738325337277,0.158775649936263,0.180060934324374,0.191256424953593,0,NA,NA,0.11184434132044,0.188718592607713,0.181226811803968,0.10064239638938,0,0.232258440079699,0.279368842654625,0.343524345708854,0.188096939285699,0.484877202728702,0.163952165568581,0.234212579342572
"2","adults",2539.06199572163,218.991247184888,NA,NA,6319.76186227857,51.2743288206047,NA,0,NA,NA,NA,16109.9766874121,63.1191084733954,31.6504507982659,NA,NA,NA,3720.11393555456,79.6324899732398,16.1495493684536,3.51155680386452,NA,1344.7973167024,NA,116.273828465582,0,15.2494745799853,NA,1030.29894328379,NA,NA,410.755836328993,NA,337.371486355062,0,0,2071.43370031618,NA,NA,45356.0524517785,463.343806244599,27473.9633282981,7892.40767382727,2732.6830108489,25705.3023952901,441.364746008984,169.155378054828,84.333404124641,0,NA,NA,2497.25919715565,1265.60119212438,2026.41124198366,3318.81871593191,0,2761.05832030282,9818.4292440277,8623.1581668441,9236.92835791488,1103.81993426067,10550.1528774394,611.999517528511
"3","eggs",7216281.46152462,622396.176209683,NA,NA,17961428.4506865,145727.039805929,NA,0,NA,NA,NA,45786249.5326449,179391.150398071,89953.9127950716,NA,NA,NA,10572955.3957866,226323.918871313,45898.7192577103,9980.21407414128,NA,3822055.5316805,NA,330462.459849548,0,43340.6119641688,NA,2928218.04933288,NA,NA,1167411.32430345,NA,958845.277009123,0,0,5887232.62195126,NA,NA,128906675.389265,1316871.87037939,78083895.7751629,22431053.3887722,7766572.76767581,73057175.2287192,1254405.06760448,480757.390261092,239684.411722664,0,NA,NA,7097473.50770553,3596971.80919559,5759274.05616409,9432432.14001702,0,7847218.38401854,27905009.4303945,24507923.2110306,26252322.7014423,3137172.44474085,29984645.020091,1739367.04981787
"4","capacity_s",76520.2978257043,2198.20724432486,NA,NA,219217.605540651,1119.94084902554,NA,0,NA,NA,NA,215778.550715916,662.956542967284,291.092775640085,NA,NA,NA,130371.210624545,698.110375989388,123.871029202681,523.494794860724,NA,259365.006434727,NA,2090.55684715788,0,3450.35651761746,NA,6964.07611567645,NA,NA,2610.17058734321,NA,19667.4733169136,0,0,35242.7344843578,NA,NA,1220840.19405459,1708.86491286432,818766.609633694,144067.070975299,69070.2322658189,722379.18025596,4607.71812150892,1185.82894388453,774.64364817511,0,NA,NA,82644.6483344452,32609.9935667022,81998.0648358206,152485.012452664,104151.240607414,159967.973034387,198345.18026552,194614.591963918,158052.303224867,168116.288478377,233975.278283537,416026.648555606
"5","surv_s",0.269900404214905,0.283779446547394,NA,NA,0.265607804141531,0.28792690033101,NA,0,NA,NA,NA,0.284625047596946,0.293328079726425,0.313237792552549,NA,NA,NA,0.280147897947111,0.34245970909606,0.279670075140998,0.266416863655506,NA,0.273201343006087,NA,0.268004716983,0,0.49067955645245,NA,0.273768082910913,NA,NA,0.270544693348684,NA,0.330960770567506,0,0,0.263784748203973,NA,NA,0.270798128426641,0.296038633263824,0.268082395871894,0.276227477001391,0.27708011045039,0.268686709150282,0.268240530291348,0.279938002842015,0.28774929156231,0,NA,NA,0.271607917089051,0.272357225177933,0.26,0.26,0.26,0.267459594372243,0.270055876413566,0.266039991370638,0.267581594835838,0.264382600347167,0.265889549327053,0.266499669474543
"6","prespawn_surv",0.993884287755109,1,NA,NA,1,1,NA,0,NA,NA,NA,0.996931930435408,0.840956341379364,1,NA,NA,NA,0.995415967337699,1,1,1,NA,1,NA,1,0,1,NA,1,NA,NA,1,NA,1,0,0,0.999536282647492,NA,NA,0.998810800914665,1,0.966597297485549,0.999924508174071,0.983765524116875,0.999969857968018,1,1,1,0,NA,NA,1,1,1,1,0,1,1,1,1,1,1,1
"7","movement",NA,NA,NA,NA,NA,NA,NA,NA,NA,NA,NA,NA,NA,NA,NA,NA,NA,NA,NA,NA,NA,NA,NA,NA,NA,NA,NA,NA,NA,NA,NA,NA,NA,NA,NA,NA,NA,NA,NA,NA,NA,NA,NA,NA,NA,NA,NA,NA,NA,NA,NA,NA,NA,NA,NA,NA,NA,NA,NA,NA,NA,NA,NA
"8","surv_s_2",0.26809477849162,0.278714460025358,NA,NA,0.242761675114138,0.28792690033101,NA,0,NA,NA,NA,0.238774340953084,0.211677512893373,0.22274892847575,NA,NA,NA,0.25436565167931,0.253605148800116,0.245626356906681,0.106186910682155,NA,0.238051409628077,NA,0.221971583920478,0,0.49067955645245,NA,0.272424276772497,NA,NA,0.270544693348684,NA,0.330960770567506,0,0,0.263784748203973,NA,NA,0.260917471950148,0.28467791112046,0.26788757361846,0.276227477001391,0.27708011045039,0.268550581010754,0.268240530291348,0.279938002842015,0.28774929156231,0,NA,NA,0.232108019485852,0.243115767226881,0.137003876732638,0.0903596558743057,0.0468646107187269,0.0594328235532565,0.0893026426235452,0.108182510874252,0.12641327596757,0.127832175123896,0.149921713016758,0.19734685373669
