"","stage_nm","1","2","3","4","5","6","7","8","9","10","11","12","13","14","15","16","17","18","19","20","21","22","23","24","25","26","27","28","29","30","31","32","33","34","35","36","37","38","39","40","41","42","43","44","45","46","47","48","49","50","51","52","53","54","55","56","57","58","59","60","61","62","63"
"1","eggtofry_surv",0.190664517708407,0.266351323972287,NA,NA,0.240997200075983,0.371799365755519,NA,0,NA,NA,NA,0.260563859720534,0.17389319312712,0.122171209126431,NA,NA,NA,0.30211176330782,0.296070428423158,0.127187112115606,0.353324289073588,NA,0.290769621426755,NA,0.212732692905832,0,0.160258415652445,NA,0.340256635015638,NA,NA,0.314036298663874,NA,0.322531739232675,0,0,0.229035177087704,NA,NA,0.284413297183702,0.042495076700084,0.336382073596489,0.134133802536684,0.221011836679416,0.309833920330935,0.176477105514529,0.180060934324374,0.191256424953593,0,NA,NA,0.11184434132044,0.188718592607713,0.181226811803968,0.10064239638938,0,0.232258440079699,0.279368842654625,0.343524345708854,0.188096939285699,0.484877202728702,0.163952165568581,0.234212579342572
"2","adults",2553.78470061044,218.991247184888,NA,NA,6391.52968010211,51.2743288206047,NA,0,NA,NA,NA,16109.9766874121,63.1191084733954,31.6504507982659,NA,NA,NA,3720.11393555456,178.086962743037,16.1495493684536,3.51155680386452,NA,1353.48806691191,NA,116.273828465582,0,15.2494745799853,NA,2821.54094524058,NA,NA,1073.31847590648,NA,337.371486355062,0,0,3270.45225946346,NA,NA,46447.7347192136,463.343806244599,28203.3855220851,8050.05697141439,2732.6830108489,26632.9511546037,943.184118964965,169.155378054828,84.333404124641,0,NA,NA,2497.25919715565,1265.60119212438,2026.41124198366,3318.81871593191,0,2761.05832030282,9818.4292440277,8623.1581668441,9236.92835791488,1103.81993426067,10550.1528774394,611.999517528511
"3","eggs",7258124.93857703,622396.176209683,NA,NA,18165400.1434481,145727.039805929,NA,0,NA,NA,NA,45786249.5326449,179391.150398071,89953.9127950716,NA,NA,NA,10572955.3957866,506141.894111789,45898.7192577103,9980.21407414128,NA,3846755.55859174,NA,330462.459849548,0,43340.6119641688,NA,8019116.37068377,NA,NA,3050484.08941842,NA,958845.277009123,0,0,9294969.57952773,NA,NA,132009351.307239,1316871.87037939,80156990.4311894,22879109.2871777,7766572.76767581,75693650.6499262,2680628.54863727,480757.390261092,239684.411722664,0,NA,NA,7097473.50770553,3596971.80919559,5759274.05616409,9432432.14001702,0,7847218.38401854,27905009.4303945,24507923.2110306,26252322.7014423,3137172.44474085,29984645.020091,1739367.04981787
"4","capacity_s",76628.81250625,2198.20724432486,NA,NA,220454.275309338,1119.94084902554,NA,0,NA,NA,NA,215778.550715916,662.956542967284,291.092775640085,NA,NA,NA,130371.210624545,820.873359362737,123.871029202681,523.494794860724,NA,265492.052201307,NA,2090.55684715788,0,3450.35651761746,NA,8352.60232667997,NA,NA,2763.43867336312,NA,19667.4733169136,0,0,38504.2696832767,NA,NA,1239970.15243031,1708.86491286432,835810.456370311,143669.257655678,69070.2322658189,728611.805733478,4969.59422474259,1185.82894388453,774.64364817511,0,NA,NA,82644.6483344452,32609.9935667022,81998.0648358206,152485.012452664,104151.240607414,159967.973034387,198345.18026552,194640.617901795,158052.303224867,168251.631377926,233975.278283537,416026.648555606
"5","surv_s",0.270330230407087,0.283779446547394,NA,NA,0.267268434881601,0.28792690033101,NA,0,NA,NA,NA,0.284625047596946,0.293328079726425,0.313237792552549,NA,NA,NA,0.280147897947111,0.415614913621925,0.279670075140998,0.266416863655506,NA,0.279599937681151,NA,0.268004716983,0,0.49067955645245,NA,0.355202327243846,NA,NA,0.326350209871217,NA,0.330960770567506,0,0,0.300330190645784,NA,NA,0.272725480670806,0.296038633263824,0.27032446792808,0.275089594612044,0.27708011045039,0.271602322925115,0.309668933731082,0.279938002842015,0.28774929156231,0,NA,NA,0.271607917089051,0.272357225177933,0.26,0.26,0.26,0.267459594372243,0.270055876413566,0.266074903619412,0.267581594835838,0.264594269018856,0.265889549327053,0.266499669474543
"6","prespawn_surv",0.993919545162104,1,NA,NA,1,1,NA,0,NA,NA,NA,0.996931930435408,0.840956341379364,1,NA,NA,NA,0.995415967337699,1,1,1,NA,1,NA,1,0,1,NA,1,NA,NA,1,NA,1,0,0,1,NA,NA,0.99898147722752,1,0.967461189252281,0.999925986577687,0.983765524116875,0.999970907841102,1,1,1,0,NA,NA,1,1,1,1,0,1,1,1,1,1,1,1
"7","movement",NA,NA,NA,NA,NA,NA,NA,NA,NA,NA,NA,NA,NA,NA,NA,NA,NA,NA,NA,NA,NA,NA,NA,NA,NA,NA,NA,NA,NA,NA,NA,NA,NA,NA,NA,NA,NA,NA,NA,NA,NA,NA,NA,NA,NA,NA,NA,NA,NA,NA,NA,NA,NA,NA,NA,NA,NA,NA,NA,NA,NA,NA,NA
"8","surv_s_2",0.248105844890426,0.254326484250261,NA,NA,0.220496897272091,0.28792690033101,NA,0,NA,NA,NA,0.21193467867819,0.181784886816579,0.197518106751489,NA,NA,NA,0.236079803794482,0.251521801134148,0.218145585017704,0.0753561119645692,NA,0.217060202862028,NA,0.186224356094877,0,0.489985708172831,NA,0.347548405774696,NA,NA,0.310418359910726,NA,0.319893557742754,0,0,0.300087335065879,NA,NA,0.251694320328891,0.266379915907659,0.269182227611085,0.275086141727338,0.27708011045039,0.269281023183484,0.309668933731082,0.279691535449177,0.28774929156231,0,NA,NA,0.193349204866105,0.207694223390075,0.104105802520277,0.0578955289820131,0.0217139731353057,0.0261423628368736,0.0558378959518021,0.073837497213652,0.0934424035661234,0.0967718480010683,0.119469295746233,0.168314858911373
