"","stage_nm","1","2","3","4","5","6","7","8","9","10","11","12","13","14","15","16","17","18","19","20","21","22","23","24","25","26","27","28","29","30","31","32","33","34","35","36","37","38","39","40","41","42","43","44","45","46","47","48","49","50","51","52","53","54","55","56","57","58","59","60","61","62","63"
"1","eggtofry_surv",0.19021540248831,0.264227961952667,NA,NA,0.236966152552676,0.371799365755519,NA,0,NA,NA,NA,0.250137254549404,0.205042482856205,0.122171209126431,NA,NA,NA,0.290759690595238,0.258415526301927,0.127187112115606,0,NA,0.273128911647488,NA,0.212732692905832,0,0.14732938742896,NA,0.306827096933153,NA,NA,0.27678979868631,NA,0.322531739232675,0,0,0.226274491886514,NA,NA,0.282652669429651,0.042495076700084,0.353801853427971,0.108343993523927,0.21006439320322,0.289547570799648,0.158775649936263,0.180060934324374,0.191256424953593,0,NA,NA,0.11184434132044,0.187921317432279,0.181226811803968,0.10064239638938,0,0.233153103805123,0.279915833088079,0.343552113758441,0.188149036046373,0.484877635464418,0.163860771397809,0.234212579342572
"2","adults",2197.43635819042,208.086672116994,NA,NA,5783.06423551651,51.2743288206047,NA,0,NA,NA,NA,11814.7498697852,83.1964963543586,31.6504507982659,NA,NA,NA,2900.53451948502,79.6324899732398,16.1495493684536,0,NA,1073.13526454723,NA,116.273828465582,0,145.047334573171,NA,1030.29894328379,NA,NA,410.755836328993,NA,337.371486355062,0,0,2074.34448744166,NA,NA,38224.611211148,238.254863873168,26436.542341216,5659.80782141732,1980.79626716408,20207.5702683538,441.364746008984,169.155378054828,84.333404124641,0,NA,NA,2171.52973665709,1106.55620882368,2026.41124198366,3318.81871593191,0,2571.57265714468,9217.97367700993,8134.30453614184,8707.69611948507,1039.13627409034,9946.7260611273,577.358035404255
"3","eggs",6245345.43906751,591404.226016719,NA,NA,16436077.3009417,145727.039805929,NA,0,NA,NA,NA,33578762.7878105,236453.200165019,89953.9127950716,NA,NA,NA,8243624.42379953,226323.918871313,45898.7192577103,0,NA,3049963.38345002,NA,330462.459849548,0,412239.792997434,NA,2928218.04933288,NA,NA,1167411.32430345,NA,958845.277009123,0,0,5895505.3853605,NA,NA,108638368.705368,677145.402586897,75135436.1276665,16085769.5977124,5629631.49615054,57432041.8153213,1254405.06760448,480757.390261092,239684.411722664,0,NA,NA,6171716.09365698,3144949.22507783,5759274.05616409,9432432.14001702,0,7308680.18346383,26198451.5030809,23118549.7342979,24748188.9711681,2953334.67373043,28269642.4895197,1640912.31114894
"4","capacity_s",75929.7577483327,2238.32690361318,NA,NA,221602.408562477,1172.02622781913,NA,0,NA,NA,NA,209101.445291293,693.003582834165,303.01495312924,NA,NA,NA,125330.919331984,722.228909260534,129.856225377338,0,NA,252323.713576349,NA,2134.79529213874,0,5622.27573211765,NA,7309.57968813343,NA,NA,2741.51214272283,NA,20002.4476971783,0,0,36433.4315674309,NA,NA,1164790.39649535,1803.7021158126,748407.503368227,124377.332941642,68823.2971857583,678901.928591209,4805.85195816425,1243.05611179658,810.70037254176,0,NA,NA,81503.7211585339,31977.5740540928,84411.0064170625,156591.62499826,108700.125386002,159411.418759392,201781.772338757,196477.831550793,159817.53252084,168484.355263723,236311.540588851,415695.861297148
"5","surv_s",0.260637716893683,0.279857519496883,NA,NA,0.2601235472672,0.286685816174576,NA,0,NA,NA,NA,0.26399136652675,0.291883050919891,0.311143142089304,NA,NA,NA,0.260134516653888,0.339706001494687,0.278763462784548,0,NA,0.260138348810837,NA,0.2678388386746,0,0.451330894253672,NA,0.273117303791653,NA,NA,0.270039513596301,NA,0.329772413997159,0,0,0.263661057174806,NA,NA,0.260954200269178,0.260786704112891,0.260465441900919,0.261241276798971,0.26302512687644,0.260504756599741,0.267900792842731,0.279020107482632,0.286515113571131,0,NA,NA,0.26,0.26,0.26,0.26,0.26,0.260274344725995,0.265566580365417,0.261364406135207,0.263238559746457,0.26,0.260061023235531,0.260899838017229
"6","prespawn_surv",0.992933505227629,1,NA,NA,1,1,NA,0,NA,NA,NA,1,1,1,NA,NA,NA,1,1,1,0,NA,1,NA,1,0,1,NA,1,NA,NA,1,NA,1,0,0,1,NA,NA,1,1,1,1,1,0.999961657436465,1,1,1,0,NA,NA,1,1,1,1,0,1,1,1,1,1,1,1
"7","movement",11,11,NA,NA,11,11,NA,11,NA,NA,NA,11,11,11,NA,NA,NA,11,11,11,11,NA,11,NA,11,11,11,NA,11,NA,NA,11,NA,11,11,11,11,NA,NA,11,11,11,11,11,11,11,11,11,11,NA,NA,11,11,11,11,11,11,11,11,11,11,11,11
"8","surv_s_2",0.250640302874532,0.27265379780618,NA,NA,0.227222380883964,0.286685816174576,NA,0,NA,NA,NA,0.194222014264297,0.190741891246241,0.209245201120182,NA,NA,NA,0.22945535334041,0.287324919112648,0.251126294108215,0,NA,0.219542218915128,NA,0.234383167759651,0,0.451330894253672,NA,0.273117303791653,NA,NA,0.270039513596301,NA,0.329772413997159,0,0,0.263661057174806,NA,NA,0.25110102632709,0.260786704112891,0.260465441900919,0.261241276798971,0.26302512687644,0.260504756599741,0.267900792842731,0.279020107482632,0.286515113571131,0,NA,NA,0.202311893420961,0.217803198383587,0.142714210321013,0.0926035786015726,0.061695098879059,0.0487451256781744,0.0847916099306732,0.105725496029103,0.120057086918556,0.115286395939276,0.133447101240267,0.174279503822029
