"","stage_nm","1","2","3","4","5","6","7","8","9","10","11","12","13","14","15","16","17","18","19","20","21","22","23","24","25","26","27","28","29","30","31","32","33","34","35","36","37","38","39","40","41","42","43","44","45","46","47","48","49","50","51","52","53","54","55","56","57","58","59","60","61","62","63"
"1","eggtofry_surv",0.448256675011873,0.527166632962617,NA,NA,0.46713788867781,0.537459959718874,NA,0,NA,NA,NA,0.421847850437418,0.207954544327065,0.18991750320041,NA,NA,NA,0.349502796080527,0.375847721766115,0.167394609344577,0,NA,0.421452315209013,NA,0.340872662969651,0,0.199345691308034,NA,0.518135280502132,NA,NA,0.451987205771766,NA,0.502459018372956,0,0,0.40412571175947,NA,NA,0.465511355013456,0.042495076700084,0.471103993887947,0.143785761009329,0.343852986148419,0.379937819713111,0.25197703459574,0.253457500669156,0.330984168156295,0,NA,NA,0.205687187667772,0.36021165945129,0.337256832472419,0.15954892597696,0,0.354681787949331,0.427459321519324,0.518474937181713,0.264646530522375,0.716952730922604,0.228679138172108,0.400476509581867
"2","adults",2197.43635819042,208.086672116994,NA,NA,5783.06423551651,51.2743288206047,NA,0,NA,NA,NA,11584.0042219275,63.1191084733954,31.6504507982659,NA,NA,NA,2804.79559936152,79.6324899732398,16.1495493684536,0,NA,1073.13526454723,NA,116.273828465582,0,15.2494745799853,NA,1030.29894328379,NA,NA,410.755836328993,NA,337.371486355062,0,0,2071.43370031618,NA,NA,37554.476887556,238.254863873168,24498.5364014322,5383.4680830956,1914.58182472251,20207.5702683538,441.364746008984,169.155378054828,84.333404124641,0,NA,NA,2171.52973665709,1106.55620882368,2026.41124198366,3318.81871593191,0,2571.57265714468,9217.97367700993,8134.30453614184,8707.69611948507,1039.13627409034,9946.7260611273,577.358035404255
"3","eggs",6245345.43906751,591404.226016719,NA,NA,16436077.3009417,145727.039805929,NA,0,NA,NA,NA,32922959.3675835,179391.150398071,89953.9127950716,NA,NA,NA,7971524.33502749,226323.918871313,45898.7192577103,0,NA,3049963.38345002,NA,330462.459849548,0,43340.6119641688,NA,2928218.04933288,NA,NA,1167411.32430345,NA,958845.277009123,0,0,5887232.62195126,NA,NA,106733776.417264,677145.402586897,69627419.2461757,15300382.9730086,5441443.08079028,57432041.8153213,1254405.06760448,480757.390261092,239684.411722664,0,NA,NA,6171716.09365698,3144949.22507783,5759274.05616409,9432432.14001702,0,7308680.18346383,26198451.5030809,23118549.7342979,24748188.9711681,2953334.67373043,28269642.4895197,1640912.31114894
"4","capacity_s",75929.7577483327,2238.32690361318,NA,NA,221602.408562477,1172.02622781913,NA,0,NA,NA,NA,208738.904790324,693.003582834165,303.01495312924,NA,NA,NA,125330.919331984,722.228909260534,129.856225377338,0,NA,252323.713576349,NA,2134.79529213874,0,3457.40889769232,NA,7309.57968813343,NA,NA,2741.51214272283,NA,20002.4476971783,0,0,36433.4315674309,NA,NA,1164647.18098294,1803.7021158126,748407.503368227,124377.332941642,68823.2971857583,678901.928591209,4805.85195816425,1243.05611179658,810.70037254176,0,NA,NA,81503.7211585339,31977.5740540928,84411.0064170625,156591.62499826,108700.125386002,159411.418759392,201781.772338757,196477.831550793,159817.53252084,168484.355263723,236311.540588851,415695.861297148
"5","surv_s",0.260637716893683,0.279857519496883,NA,NA,0.2601235472672,0.286685816174576,NA,0,NA,NA,NA,0.263912164764712,0.291883050919891,0.311143142089304,NA,NA,NA,0.260134516653888,0.339706001494687,0.278763462784548,0,NA,0.260138348810837,NA,0.2678388386746,0,0.490209019135129,NA,0.273117303791653,NA,NA,0.270039513596301,NA,0.329772413997159,0,0,0.263661057174806,NA,NA,0.260948702156422,0.260786704112891,0.260465441900919,0.261241276798971,0.26302512687644,0.260504756599741,0.267900792842731,0.279020107482632,0.286515113571131,0,NA,NA,0.26,0.26,0.26,0.26,0.26,0.260274344725995,0.265566580365417,0.261364406135207,0.263238559746457,0.26,0.260061023235531,0.260899838017229
"6","prespawn_surv",0.992933505227629,1,NA,NA,1,1,NA,0,NA,NA,NA,0.995733208637184,0.840956341379364,1,NA,NA,NA,0.993920011928162,1,1,0,NA,1,NA,1,0,1,NA,1,NA,NA,1,NA,1,0,0,0.999536282647492,NA,NA,0.993053151698862,1,0.962142877753227,0.983060712492656,0.976828529414102,0.999961657436465,1,1,1,0,NA,NA,1,1,1,1,0,1,1,1,1,1,1,1
"7","movement",11,11,NA,NA,11,11,NA,11,NA,NA,NA,11,11,11,NA,NA,NA,11,11,11,11,NA,11,NA,11,11,11,NA,11,NA,NA,11,NA,11,11,11,11,NA,NA,11,11,11,11,11,11,11,11,11,11,NA,NA,11,11,11,11,11,11,11,11,11,11,11,11
"8","surv_s_2",0.250640302874532,0.27265379780618,NA,NA,0.227222380883964,0.286685816174576,NA,0,NA,NA,NA,0.194180220084323,0.190741891246241,0.209245201120182,NA,NA,NA,0.22945535334041,0.287324919112648,0.251126294108215,0,NA,0.219542218915128,NA,0.234383167759651,0,0.490209019135129,NA,0.273117303791653,NA,NA,0.270039513596301,NA,0.329772413997159,0,0,0.263661057174806,NA,NA,0.251094316579276,0.260786704112891,0.260465441900919,0.261241276798971,0.26302512687644,0.260504756599741,0.267900792842731,0.279020107482632,0.286515113571131,0,NA,NA,0.202311893420961,0.217803198383587,0.142714210321013,0.0926035786015726,0.061695098879059,0.0487451256781744,0.0847916099306732,0.105725496029103,0.120057086918556,0.115286395939276,0.133447101240267,0.174279503822029
