"","stage_nm","1","2","3","4","5","6","7","8","9","10","11","12","13","14","15","16","17","18","19","20","21","22","23","24","25","26","27","28","29","30","31","32","33","34","35","36","37","38","39","40","41","42","43","44","45","46","47","48","49","50","51","52","53","54","55","56","57","58","59","60","61","62","63"
"1","eggtofry_surv",0.201232674494136,NA,NA,NA,0.26779368753587,NA,NA,NA,NA,NA,NA,0.267337778757695,NA,NA,NA,NA,NA,0.313487419474412,NA,NA,NA,NA,NA,NA,NA,NA,NA,NA,NA,NA,NA,NA,NA,NA,NA,NA,NA,NA,NA,NA,NA,NA,NA,NA,NA,NA,NA,NA,NA,NA,NA,0.12064143325908,0.196303542079045,0.181618113935649,0.042495076700084,NA,NA,NA,NA,NA,NA,NA,NA
"2","adults",1186.92042926064,NA,NA,NA,1489.7478414258,NA,NA,NA,NA,NA,NA,5412.40019713294,NA,NA,NA,NA,NA,1115.48144823928,NA,NA,NA,NA,NA,NA,NA,NA,NA,NA,NA,NA,NA,NA,NA,NA,NA,NA,NA,NA,NA,NA,NA,NA,NA,NA,NA,NA,NA,NA,NA,NA,NA,354.526829122093,176.385606633394,277.162414140482,18.0675946996312,NA,NA,NA,NA,NA,NA,NA,NA
"3","eggs",3373352.79895128,NA,NA,NA,4234020.18089437,NA,NA,NA,NA,NA,NA,15382611.0865883,NA,NA,NA,NA,NA,3170315.69499584,NA,NA,NA,NA,NA,NA,NA,NA,NA,NA,NA,NA,NA,NA,NA,NA,NA,NA,NA,NA,NA,NA,NA,NA,NA,NA,NA,NA,NA,NA,NA,NA,NA,1007602.56697858,501306.460958068,787724.755978213,51350.0059884255,NA,NA,NA,NA,NA,NA,NA,NA
"4","capacity_s",60209.9058610011,518.772198452414,NA,NA,30706.2035495237,NA,NA,NA,NA,NA,NA,166403.21032051,NA,NA,NA,NA,NA,103401.724074487,NA,NA,NA,NA,NA,NA,NA,NA,NA,NA,NA,NA,NA,NA,NA,NA,NA,NA,NA,NA,NA,NA,NA,NA,NA,NA,NA,NA,NA,NA,NA,NA,NA,19385.7817080797,7649.25775021409,19234.1139738345,35768.0893407483,24430.5379202575,37523.3516994241,46525.412654875,45650.336386598,37073.9970527467,39434.6849517181,54883.0899677433,97586.4978093397
"5","surv_s",0.268421316352,0.26795915983765,NA,NA,0.267475174083427,NA,NA,NA,NA,NA,NA,0.281820647925571,NA,NA,NA,NA,NA,0.280152080256245,NA,NA,NA,NA,NA,NA,NA,NA,NA,NA,NA,NA,NA,NA,NA,NA,NA,NA,NA,NA,NA,NA,NA,NA,NA,NA,NA,NA,NA,NA,NA,NA,NA,0.271607917089051,0.272357225177933,0.26,0.26,0.26,0.267459594372243,0.270055876413566,0.266039991370638,0.267581594835838,0.264382600347167,0.265889549327053,0.266499669474543
"6","prespawn_surv",0.658537637697533,0,NA,NA,0.606315318625505,NA,NA,NA,NA,NA,NA,0.622498761025562,NA,NA,NA,NA,NA,0.590360636726845,NA,NA,NA,NA,NA,NA,NA,NA,NA,NA,NA,NA,NA,NA,NA,NA,NA,NA,NA,NA,NA,NA,NA,NA,NA,NA,NA,NA,NA,NA,NA,NA,NA,0.488095774656962,0.497244712412949,0.318885384617508,0.222075303357342,0,0,0,0,0,0,0,0
"7","movement",NA,NA,NA,NA,NA,NA,NA,NA,NA,NA,NA,NA,NA,NA,NA,NA,NA,NA,NA,NA,NA,NA,NA,NA,NA,NA,NA,NA,NA,NA,NA,NA,NA,NA,NA,NA,NA,NA,NA,NA,NA,NA,NA,NA,NA,NA,NA,NA,NA,NA,NA,NA,NA,NA,NA,NA,NA,NA,NA,NA,NA,NA,NA
"8","surv_s_2",0.267215669220014,0.258280087580423,NA,NA,0.242561043864217,NA,NA,NA,NA,NA,NA,0.23229243419962,NA,NA,NA,NA,NA,0.254413936310111,NA,NA,NA,NA,NA,NA,NA,NA,NA,NA,NA,NA,NA,NA,NA,NA,NA,NA,NA,NA,NA,NA,NA,NA,NA,NA,NA,NA,NA,NA,NA,NA,NA,0.232108019485852,0.243115767226881,0.137003876732638,0.0903596558743057,0.0468646107187269,0.0594328235532565,0.0893026426235452,0.108182510874252,0.12641327596757,0.127832175123896,0.149921713016758,0.19734685373669
