"","stage_nm","1","2","3","4","5","6","7","8","9","10","11","12","13","14","15","16","17","18","19","20","21","22","23","24","25","26","27","28","29","30","31","32","33","34","35","36","37","38","39","40","41","42","43","44","45","46","47","48","49","50","51","52","53","54","55","56","57","58","59","60","61","62","63"
"1","eggtofry_surv",0.201232674494136,NA,NA,NA,0.26779368753587,NA,NA,NA,NA,NA,NA,0.267337778757695,NA,NA,NA,NA,NA,0.313487419474412,NA,NA,NA,NA,NA,NA,NA,NA,NA,NA,NA,NA,NA,NA,NA,NA,NA,NA,NA,NA,NA,NA,NA,NA,NA,NA,NA,NA,NA,NA,NA,NA,NA,0.12064143325908,0.196303542079045,0.181618113935649,0.042495076700084,NA,NA,NA,NA,NA,NA,NA,NA
"2","adults",1186.92042926064,NA,NA,NA,1489.7478414258,NA,NA,NA,NA,NA,NA,5412.40019713294,NA,NA,NA,NA,NA,1115.48144823928,NA,NA,NA,NA,NA,NA,NA,NA,NA,NA,NA,NA,NA,NA,NA,NA,NA,NA,NA,NA,NA,NA,NA,NA,NA,NA,NA,NA,NA,NA,NA,NA,NA,354.526829122093,176.385606633394,277.162414140482,18.0675946996312,NA,NA,NA,NA,NA,NA,NA,NA
"3","eggs",3373352.79895128,NA,NA,NA,4234020.18089437,NA,NA,NA,NA,NA,NA,15382611.0865883,NA,NA,NA,NA,NA,3170315.69499584,NA,NA,NA,NA,NA,NA,NA,NA,NA,NA,NA,NA,NA,NA,NA,NA,NA,NA,NA,NA,NA,NA,NA,NA,NA,NA,NA,NA,NA,NA,NA,NA,NA,1007602.56697858,501306.460958068,787724.755978213,51350.0059884255,NA,NA,NA,NA,NA,NA,NA,NA
"4","capacity_s",60209.9058610011,518.772198452414,NA,NA,30706.2035495237,NA,NA,NA,NA,NA,NA,166403.21032051,NA,NA,NA,NA,NA,103401.724074487,NA,NA,NA,NA,NA,NA,NA,NA,NA,NA,NA,NA,NA,NA,NA,NA,NA,NA,NA,NA,NA,NA,NA,NA,NA,NA,NA,NA,NA,NA,NA,NA,NA,19385.7817080797,7649.25775021409,19234.1139738345,35768.0893407483,24430.5379202575,37523.3516994241,46525.412654875,45650.336386598,37073.9970527467,39434.6849517181,54883.0899677433,97586.4978093397
"5","surv_s",0.268421316352,0.26795915983765,NA,NA,0.267475174083427,NA,NA,NA,NA,NA,NA,0.281820647925571,NA,NA,NA,NA,NA,0.280152080256245,NA,NA,NA,NA,NA,NA,NA,NA,NA,NA,NA,NA,NA,NA,NA,NA,NA,NA,NA,NA,NA,NA,NA,NA,NA,NA,NA,NA,NA,NA,NA,NA,NA,0.271607917089051,0.272357225177933,0.26,0.26,0.26,0.267459594372243,0.270055876413566,0.266039991370638,0.267581594835838,0.264382600347167,0.265889549327053,0.266499669474543
"6","prespawn_surv",0.579535399169581,0,NA,NA,0.52456896365427,NA,NA,NA,NA,NA,NA,0.545271054283758,NA,NA,NA,NA,NA,0.504809147498987,NA,NA,NA,NA,NA,NA,NA,NA,NA,NA,NA,NA,NA,NA,NA,NA,NA,NA,NA,NA,NA,NA,NA,NA,NA,NA,NA,NA,NA,NA,NA,NA,NA,0.397707892755136,0.414794804353485,0.253338084745818,0.172973509230282,0,0,0,0,0,0,0,0
"7","movement",NA,NA,NA,NA,NA,NA,NA,NA,NA,NA,NA,NA,NA,NA,NA,NA,NA,NA,NA,NA,NA,NA,NA,NA,NA,NA,NA,NA,NA,NA,NA,NA,NA,NA,NA,NA,NA,NA,NA,NA,NA,NA,NA,NA,NA,NA,NA,NA,NA,NA,NA,NA,NA,NA,NA,NA,NA,NA,NA,NA,NA,NA,NA
"8","surv_s_2",0.253541121520291,0.224519438039387,NA,NA,0.217598906885641,NA,NA,NA,NA,NA,NA,0.20413684765039,NA,NA,NA,NA,NA,0.236167454033785,NA,NA,NA,NA,NA,NA,NA,NA,NA,NA,NA,NA,NA,NA,NA,NA,NA,NA,NA,NA,NA,NA,NA,NA,NA,NA,NA,NA,NA,NA,NA,NA,NA,0.193349204866105,0.207694223390075,0.104105802520277,0.0578955289820131,0.0217139731353057,0.0261423628368736,0.0558378959518021,0.0737499112431593,0.0934424035661235,0.0960454998234372,0.119469295746233,0.168314858911373
